CREATEDDATE,MSISDN,CUSTOMERNAME,GENDER,IDNUMBER,IDTYPE,COUNTRY,DOB,ALTERNATIVEMSISDN,AGENTMOBILE,AGENTNAME,SUPERAGENTNAME,REGIONNAME,TERRITORYNAME,DEVICEMODEL,REGTYPE,MPESASTATE,ICAP_STATE,DBMS_STATE,EKYCSTATUS,TEMPREGSTATUS,TEMPREGDESCRIPTION,FULLREGSTATUS,FULLREGDESCR,IMAGECOUNT,AppVersion,Verified State,Verified By,Verified Date,Verified Descr,Original Verified Descr,Edited By,Edited date,TimeToVerify
2017-11-09,756124578,Lordguard Mahinja,M,19930928111040000125,National ID,Tanzania,28-09-1993,712457800,752321805,Gloria  Kabaka ,EISA - VTL ,DAR,KINONDONI,TECNOTECNO-C8,Re-Reg,Pending,Pending,Pending,DECLINED,Fail,["Number not authorized for registration."],Pending,,4,2.2.17,Good,Vodacom Manage,2017-11-09 12:02:23,#Correct Name#Correct DOB#Correct Gender#Correct Nationality #Correct ID Type#Correct ID Number#Visible and Match Portrait Image#Readable and Match ID Image#Readable and Match ID Image#Submitted Signature,#Correct Name#Correct DOB#Correct Gender#Correct Nationality #Correct ID Type#Correct ID Number#Visible and Match Portrait Image#Readable and Match ID Image#Readable and Match ID Image#Submitted Signature, , ,35
2017-11-09,755780056,Lordguard Mahinja,M,19930928111040000125,National ID,Tanzania,28-09-1993,716587400,752321805,Gloria  Kabaka ,EISA - VTL ,DAR,KINONDONI,TECNOTECNO-C8,NewReg,Pending,Pending,Pending,PENDING,Pending, ,Pending,,4,2.2.17,Good,Vodacom Manage,2017-11-09 12:01:48,#Correct Name#Correct DOB#Correct Gender#Correct Nationality #Correct ID Type#Correct ID Number#Visible and Match Portrait Image#Readable and Match ID Image#Readable and Match ID Image#Submitted Signature,#Correct Name#Correct DOB#Correct Gender#Correct Nationality #Correct ID Type#Correct ID Number#Visible and Match Portrait Image#Readable and Match ID Image#Readable and Match ID Image#Submitted Signature, , ,21
2017-11-09,756580963,Lordguard Mahinja,M,19930928111040000125,National ID,Tanzania,28-09-1993,712457866,752321805,Gloria  Kabaka ,EISA - VTL ,DAR,KINONDONI,TECNOTECNO-C8,Re-Reg,Pending,Pending,Pending,DECLINED,Fail,["Number not authorized for registration."],Pending,,4,2.2.17,Bad,NULL,NULL,InternalVerification: ["Number not authorized for registration."],NULL,Oscar Makala,2017-11-09 12:08:25,NULL
