CREATEDDATE,MSISDN,CUSTOMERNAME,GENDER,IDNUMBER,IDTYPE,COUNTRY,DOB,ALTERNATIVEMSISDN,AGENTMOBILE,AGENTNAME,SUPERAGENTNAME,REGIONNAME,TERRITORYNAME,DEVICEMODEL,REGTYPE,MPESASTATE,ICAP_STATE,DBMS_STATE,EKYCSTATUS,TEMPREGSTATUS,TEMPREGDESCRIPTION,FULLREGSTATUS,FULLREGDESCR,IMAGECOUNT,AppVersion,Verified State,Verified By,Verified Date,Verified Descr,Original Verified Descr,Edited By,Edited date,TimeToVerify,Audit State,Audited By,Audited Date,Audit Descr
2017-09-22,759118843,TRYPHONE RWEZAURA,M,T100482003464,Voters ID,Tanzania,09-10-1994,785653214,758811165,Haidari Tulla,HAIDARI  Neoberg,VICTORIA,KARAGWE,HUAWEIHUAWEI CUN-L21,NewReg,Pending,Pending,Pending,DECLINED,Declined,decline from ICAP.,Pending,,4,2.2.13,Good,Vodacom Manage,2017-10-27 10:22:17,#Correct Name#Correct DOB#Correct Gender#Correct Nationality #Correct ID Type#Correct ID Number#Visible and Match Portrait Image#Readable and Match ID Image#Readable and Match ID Image#Submitted Signature,, ,2017-11-09 12:24:58,2017-11-09 12:24:58,55,NULL,NULL,  :: 2017-11-09 12:24:58 - 345
2017-09-19,714253614,MTWALE MTAKAMA,M,T100482003464,Voters ID,Tanzania,05-10-1989,652874532,752321805,Gloria  Kabaka ,EISA - VTL ,COAST,LINDI,motorolaXT1058,Re-Reg,Pending,Pending,Pending,DECLINED,Fail,["ID usage has reached its limit. Too many registrations with the same ID Type and ID number" "ID number has been used too many registrations of the same ID number"],Pending,,4,2.2.13,Good,Vodacom Manage,2017-11-09 12:44:56,#Correct Name#Correct DOB#Correct Gender#Correct Nationality #Correct ID Type#Correct ID Number#Visible and Match Portrait Image#Readable and Match ID Image#Readable and Match ID Image#Submitted Signature,#Correct Name#Correct DOB#Wrong Gender#Wrong Nationality#Correct ID Type#Correct ID Number#Visible and Match Portrait Image#Readable and Match ID Image#Readable and Match ID Image#Submitted Signature, , ,25,55,NULL,NULL,  :: 2017-11-09 12:44:31 - 1
2017-09-26,758057215,hassan mjaka,M,T100482003464,Zanzibar Resident Id,Tanzania,28-08-1959,754710570,754710570,Mohamed mohamed,EISA - VTL ,COAST,ZANZIBAR,TCL5023F,NewReg,Pending,Pending,Pending,PENDING,Pending,,Pending,,4,2.2.13,Good,Vodacom Manage,2017-10-26 12:11:30,#Correct Name#Correct DOB#Correct Gender#Correct Nationality #Correct ID Type#Correct ID Number#Visible and Match Portrait Image#Readable and Match ID Image#Readable and Match ID Image#Submitted Signature,, ,2017-11-09 12:11:14,2017-11-09 12:11:14,55,NULL,NULL,  :: 2017-11-09 12:11:14 - 345
2017-09-28,754231245,MADELINE NKYA,F,T100482003464,Voters ID,Tanzania,22-09-2006,715412354,744176191,G2 Test,EISA - VTL ,COAST,KOROGWE,TECNOTECNO-C8,Re-Reg,Pending,Pending,Pending,DECLINED,Fail,["Invalid customer age" "ID usage has reached its limit. Too many registrations with the same ID Type and ID number" "ID number has been used too many registrations of the same ID number"],Pending,,4,2.2.13,Good,Vodacom Manage,2017-10-25 16:53:43,#Correct Name#Correct DOB#Correct Gender#Correct Nationality #Correct ID Type#Correct ID Number#Visible and Match Portrait Image#Readable and Match ID Image#Readable and Match ID Image#Submitted Signature,, ,2017-11-09 12:10:28,2017-11-09 12:10:28,55,NULL,NULL,  :: 2017-11-09 12:10:28 - 345
2017-09-28,758552214,MADELINE NKYA,F,T100482003464,Voters ID,mtanzania,22-09-2006,714562147,744176191,G2 Test,EISA - VTL ,COAST,MTWARA,TECNOTECNO-C8,Re-Reg,Pending,Pending,Pending,DECLINED,Fail,["Invalid customer age" "ID usage has reached its limit. Too many registrations with the same ID Type and ID number" "ID number has been used too many registrations of the same ID number"],Pending,,4,2.2.13,Good,Joyce Joyce,2017-11-01 12:45:15,#Correct Name#Correct DOB#Correct Gender#Correct Nationality #Correct ID Type#Correct ID Number#Visible and Match Portrait Image#Readable and Match ID Image#Readable and Match ID Image#Submitted Signature,[],Vodacom Manage,2017-11-09 12:10:24,2017-11-09 12:10:24,55,NULL,NULL,  :: 2017-11-09 12:10:24 - 345
2017-10-03,755519850, mohamed  mohamed,M,T100482003464,Drivers License (ZNZ),Tanzania,26-07-1975,754710570,754710570,Mohamed mohamed,EISA - VTL ,COAST,ZANZIBAR,TCL5023F,NewReg,Pending,Pending,Pending,PENDING,Pending,Reset By EditRecord2,Pending,,4,2.2.13,Not Verified,Joyce Joyce,2017-11-09 12:07:26,,#Correct Name#Correct DOB#Correct Gender#Correct Nationality #Correct ID Type#Correct ID Number#Visible and Match Portrait Image#Readable and Match ID Image#Readable and Match ID Image#Submitted Signature,Vodacom Manage,2017-11-09 16:14:55,2017-11-09 16:14:55,55,NULL,NULL,  :: 2017-11-09 16:14:55 - 1
2017-09-19,756174875,De DW,M,T100482003464,Drivers License (ZNZ),Tanzania,19-09-1999,714253678,744176191,G2 Test,EISA - VTL ,DAR,KAWE,TECNOTECNO-C8,NewReg,Pending,Pending,Pending,Pending,Pending,,Pending,,4,2.2.13,Good,Vodacom Manage,2017-11-09 13:05:54,#Correct Name#Correct DOB#Correct Gender#Correct Nationality #Correct ID Type#Correct ID Number#Visible and Match Portrait Image#Readable and Match ID Image#Readable and Match ID Image#Submitted Signature,, , ,2017-11-09 13:05:54,55,NULL,NULL,  :: 2017-11-09 13:05:54 - 1
2017-09-19,756174875,MTWALE MTAKAMA,M,T100482003464,Voters ID,Tanzania,05-10-1989,714253678,744176191,G2 Test,EISA - VTL ,DAR,KAWE,TECNOTECNO-C8,NewReg,Pending,Pending,Pending,Pending,Pending,,Pending,,4,2.2.13,Good,Vodacom Manage,2017-11-09 13:03:21,#Correct Name#Correct DOB#Correct Gender#Correct Nationality #Correct ID Type#Correct ID Number#Visible and Match Portrait Image#Readable and Match ID Image#Readable and Match ID Image#Submitted Signature,, , ,2017-11-09 13:03:21,55,NULL,NULL,  :: 2017-11-09 13:03:21 - 1
2017-09-19,756628940,Dadwell John,M,T100482003464,Voters ID,Tanzania,19-09-1999,714253645,744176191,G2 Test,EISA - VTL ,DAR,KAWE,TECNOTECNO-C8,NewReg,Pending,Pending,Pending,Pending,Pending,,Pending,,4,2.2.13,Good,Vodacom Manage,2017-11-09 13:03:21,#Correct Name#Correct DOB#Correct Gender#Correct Nationality #Correct ID Type#Correct ID Number#Visible and Match Portrait Image#Readable and Match ID Image#Readable and Match ID Image#Submitted Signature,#Correct Name#Correct DOB#Correct Gender#Correct Nationality #Correct ID Type#Correct ID Number#Visible and Match Portrait Image#Readable and Match ID Image#Readable and Match ID Image#Submitted Signature, , ,46,55,NULL,NULL,  :: 2017-11-09 13:02:35 - 1
2017-09-19,755389571,WILL Swed,M,T100482003464,Voters ID,Tanzania,05-10-1989,756789612,744176191,G2 Test,EISA - VTL ,DAR,KAWE,TECNOTECNO-C8,NewReg,Pending,Failed,Pending,Pending,Pending,decline from ICAP.,Pending,,4,2.2.13,Good,Vodacom Manage,2017-11-09 13:02:35,#Correct Name#Correct DOB#Correct Gender#Correct Nationality #Correct ID Type#Correct ID Number#Visible and Match Portrait Image#Readable and Match ID Image#Readable and Match ID Image#Submitted Signature,#Correct Name#Correct DOB#Correct Gender#Correct Nationality #Correct ID Type#Correct ID Number#Visible and Match Portrait Image#Readable and Match ID Image#Readable and Match ID Image#Submitted Signature, , ,30,55,NULL,NULL,  :: 2017-11-09 13:02:05 - 1
2017-09-19,756174875,MTWALE MTAKAMA,M,T100482003464,Voters ID,Tanzania,05-10-1989,714253678,744176191,G2 Test,EISA - VTL ,DAR,KAWE,TECNOTECNO-C8,Re-Reg,Pending,Pending,Pending,DECLINED,Fail,["ID usage has reached its limit. Too many registrations with the same ID Type and ID number" "ID number has been used too many registrations of the same ID number"],Pending,,4,2.2.13,Good,Vodacom Manage,2017-11-09 13:02:05,#Correct Name#Correct DOB#Correct Gender#Correct Nationality #Correct ID Type#Correct ID Number#Visible and Match Portrait Image#Readable and Match ID Image#Readable and Match ID Image#Submitted Signature,#Correct Name#Correct DOB#Correct Gender#Correct Nationality #Correct ID Type#Correct ID Number#Visible and Match Portrait Image#Readable and Match ID Image#Readable and Match ID Image#Submitted Signature, , ,15,55,NULL,NULL,  :: 2017-11-09 13:01:50 - 1
2017-09-19,756894412,FRANK REMMY,F,T100482003464,Voters ID,Tanzania,20-10-1981,753575756,746146703,TEST LABDEMO,EISA - VTL ,DAR,KINONDONI,HUAWEIHUAWEI Y300-0151,NewReg,Pending,Pending,Pending,Pending,Pending,,Pending,,4,2.2.13,Good,Vodacom Manage,2017-11-09 12:57:58,#Correct Name#Correct DOB#Correct Gender#Correct Nationality #Correct ID Type#Correct ID Number#Visible and Match Portrait Image#Readable and Match ID Image#Readable and Match ID Image#Submitted Signature,, , ,2017-11-09 12:57:58,55,NULL,NULL,  :: 2017-11-09 12:57:58 - 345
2017-09-19,753173543,FRANK REMMY,F,T100482003464,Voters ID,Tanzania,20-10-1981,753575756,746146703,TEST LABDEMO,EISA - VTL ,DAR,KINONDONI,HUAWEIHUAWEI Y300-0151,NewReg,Pending,Pending,Pending,Pending,Pending,,Pending,,4,2.2.13,Good,Vodacom Manage,2017-11-09 12:46:09,#Correct Name#Correct DOB#Correct Gender#Correct Nationality #Correct ID Type#Correct ID Number#Visible and Match Portrait Image#Readable and Match ID Image#Readable and Match ID Image#Submitted Signature,, , ,2017-11-09 12:46:09,55,NULL,NULL,  :: 2017-11-09 12:46:09 - 1
2017-09-19,758887753,ygy edfgyh,M,T100482003464,Drivers License (ZNZ),Tanzania,19-09-1999,714253614,744176191,G2 Test,EISA - VTL ,DAR,KAWE,TECNOTECNO-C8,NewReg,Pending,Pending,Pending,Pending,Pending,decline from ICAP.,Fail,Verification Declined,4,2.2.13,Good,Vodacom Manage,2017-11-09 12:46:09,#Correct Name#Correct DOB#Correct Gender#Correct Nationality #Correct ID Type#Correct ID Number#Visible and Match Portrait Image#Readable and Match ID Image#Readable and Match ID Image#Submitted Signature,#Invalid Name#Wrong DOB#Cannot be verified#Wrong Nationality#Wrong ID Type#Wrong ID Number#Visible and Match Portrait Image#Readable and Match ID Image#Readable and Match ID Image#Submitted Signature, , ,29,55,NULL,NULL,  :: 2017-11-09 12:45:40 - 1
2017-09-19,798142536,MTWALE MTAKAMA,M,T100482003464,Voters ID,Tanzania,05-10-1989,714253678,744176191,G2 Test,EISA - VTL ,DAR,KAWE,TECNOTECNO-C8,Re-Reg,Pending,Pending,Pending,DECLINED,Fail,["ID usage has reached its limit. Too many registrations with the same ID Type and ID number" "ID number has been used too many registrations of the same ID number"],Pending,,4,2.2.13,Good,Vodacom Manage,2017-11-09 12:45:40,#Correct Name#Correct DOB#Correct Gender#Correct Nationality #Correct ID Type#Correct ID Number#Visible and Match Portrait Image#Readable and Match ID Image#Readable and Match ID Image#Submitted Signature,#Correct Name#Correct DOB#Correct Gender#Correct Nationality #Correct ID Type#Correct ID Number#Visible and Match Portrait Image#Readable and Match ID Image#Readable and Match ID Image#Submitted Signature, , ,44,55,NULL,NULL,  :: 2017-11-09 12:44:56 - 1
2017-09-20,752675180,FRANK REMMY,F,T100482003464,Drivers Licence,Zimbabwe,20-09-1984,753575756,746146703,TEST LABDEMO,EISA - VTL ,DAR,KINONDONI,HUAWEIHUAWEI Y300-0151,NewReg,Pending,Pending,Pending,Pending,Pending,,Pending,,4,2.2.13,Good,Vodacom Manage,2017-11-09 12:44:31,#Correct Name#Correct DOB#Correct Gender#Correct Nationality #Correct ID Type#Correct ID Number#Visible and Match Portrait Image#Readable and Match ID Image#Readable and Match ID Image#Submitted Signature,#Misspelled Name#Wrong DOB#Correct Gender#Correct Nationality #Correct ID Type#Correct ID Number#Visible and Match Portrait Image#Readable and Match ID Image#Readable and Match ID Image#Submitted Signature, , ,22,-1,Joyce Joyce,2017-11-09,lock
2017-09-20,749142532,BY YU,M,T100482003464,Drivers License (ZNZ),Tanzania,20-09-1999,714253622,744176191,G2 Test,EISA - VTL ,DAR,KAWE,TECNOTECNO-C8,Re-Reg,Pending,Pending,Pending,DECLINED,Fail,["Invalid customer name"],Pending,,4,2.2.13,Good,Vodacom Manage,2017-11-09 12:44:09,#Correct Name#Correct DOB#Correct Gender#Correct Nationality #Correct ID Type#Correct ID Number#Visible and Match Portrait Image#Readable and Match ID Image#Readable and Match ID Image#Submitted Signature,#Correct Name#Correct DOB#Correct Gender#Correct Nationality #Correct ID Type#Correct ID Number#Visible and Match Portrait Image#Readable and Match ID Image#Readable and Match ID Image#Submitted Signature, , ,22,-1,Joyce Joyce,2017-11-09,lock
2017-09-20,749142532,BY NU,M,T100482003464,Drivers License (ZNZ),Tanzania,20-09-1999,714253647,744176191,G2 Test,EISA - VTL ,DAR,KAWE,TECNOTECNO-C8,Re-Reg,Pending,Pending,Pending,DECLINED,Fail,["Invalid customer name"],Pending,,4,2.2.13,Good,Vodacom Manage,2017-11-09 12:43:46,#Correct Name#Correct DOB#Correct Gender#Correct Nationality #Correct ID Type#Correct ID Number#Visible and Match Portrait Image#Readable and Match ID Image#Readable and Match ID Image#Submitted Signature,#Correct Name#Correct DOB#Correct Gender#Correct Nationality #Correct ID Type#Correct ID Number#Visible and Match Portrait Image#Readable and Match ID Image#Readable and Match ID Image#Submitted Signature, , ,13,-1,Joyce Joyce,2017-11-09,lock
2017-09-20,744955955,JI YE,M,T100482003464,Drivers License (ZNZ),Tanzania,18-09-1999,714253678,744176191,G2 Test,EISA - VTL ,DAR,KAWE,TECNOTECNO-C8,Re-Reg,Pending,Pending,Pending,DECLINED,Fail,["Invalid customer name"],Pending,,4,2.2.13,Good,Vodacom Manage,2017-11-09 12:43:32,#Correct Name#Correct DOB#Correct Gender#Correct Nationality #Correct ID Type#Correct ID Number#Visible and Match Portrait Image#Readable and Match ID Image#Readable and Match ID Image#Submitted Signature,#Misspelled Name#Correct DOB#Correct Gender#Correct Nationality #Correct ID Type#Correct ID Number#Visible and Match Portrait Image#Readable and Match ID Image#Readable and Match ID Image#Submitted Signature, , ,31,-1,Joyce Joyce,2017-11-09,lock
2017-09-21,757830683, FRANK REMMY,F,T100482003464,Drivers Licence,Zimbabwe,19-08-1978,753575756,746146703,TEST LABDEMO,EISA - VTL ,DAR,KINONDONI,HUAWEIHUAWEI Y300-0151,Re-Reg,Pending,Pending,Pending,PENDING,Pending,Reset By EditRecord2,Pending,,4,2.2.13,Good,Vodacom Manage,2017-11-09 12:42:59,#Correct Name#Correct DOB#Correct Gender#Correct Nationality #Correct ID Type#Correct ID Number#Visible and Match Portrait Image#Readable and Match ID Image#Readable and Match ID Image#Submitted Signature,#Misspelled Name#Wrong DOB#Correct Gender#Wrong Nationality#Correct ID Type#Correct ID Number#Visible and Match Portrait Image#Readable and Match ID Image#Readable and Match ID Image#Submitted Signature, , ,32,-1,Joyce Joyce,2017-11-09,lock
2017-09-21,744562314,gdhh thdhsj,M,T100482003464,National ID,Tanzania,20-09-1999,714253678,744176191,G2 Test,EISA - VTL ,DAR,KAWE,TECNOTECNO-C8,NewReg,Pending,Pending,Pending,Pending,Pending,decline from ICAP.,Pending,,4,2.2.13,Good,Vodacom Manage,2017-11-09 12:42:27,#Correct Name#Correct DOB#Correct Gender#Correct Nationality #Correct ID Type#Correct ID Number#Visible and Match Portrait Image#Readable and Match ID Image#Readable and Match ID Image#Submitted Signature,#Correct Name#Correct DOB#Correct Gender#Correct Nationality #Correct ID Type#Correct ID Number#Visible and Match Portrait Image#Readable and Match ID Image#Readable and Match ID Image#Submitted Signature, , ,21,-1,Joyce Joyce,2017-11-09,lock
2017-09-21,744440404,Gio SEL,M,T100482003464,Voters ID,Tanzania,21-09-1999,714253678,744176191,G2 Test,EISA - VTL ,DAR,KAWE,TECNOTECNO-C8,Re-Reg,Pending,Pending,Pending,DECLINED,Fail,["ID usage has reached its limit. Too many registrations with the same ID Type and ID number" "ID number has been used too many registrations of the same ID number"],Pending,,4,2.2.13,Good,Vodacom Manage,2017-11-09 12:42:05,#Correct Name#Correct DOB#Correct Gender#Correct Nationality #Correct ID Type#Correct ID Number#Visible and Match Portrait Image#Readable and Match ID Image#Readable and Match ID Image#Submitted Signature,#Correct Name#Correct DOB#Correct Gender#Correct Nationality #Correct ID Type#Correct ID Number#Visible and Match Portrait Image#Readable and Match ID Image#Readable and Match ID Image#Submitted Signature, , ,16,-1,Joyce Joyce,2017-11-09,lock
2017-09-21,757831514,FRANK REMMY,F,T100482003464,Voters ID,Tanzania,20-10-1981,753575756,746146703,TEST LABDEMO,EISA - VTL ,DAR,KINONDONI,HUAWEIHUAWEI Y300-0151,Re-Reg,Pending,Pending,Pending,DECLINED,Fail,["ID usage has reached its limit. Too many registrations with the same ID Type and ID number" "ID number has been used too many registrations of the same ID number"],Pending,,4,2.2.13,Good,Vodacom Manage,2017-11-09 12:38:48,#Correct Name#Correct DOB#Correct Gender#Correct Nationality #Correct ID Type#Correct ID Number#Visible and Match Portrait Image#Readable and Match ID Image#Readable and Match ID Image#Submitted Signature,, , ,2017-11-09 12:38:48,55,NULL,NULL,  :: 2017-11-09 12:38:48 - 1
2017-09-21,743615079,TRYPHONE RWEZAURA,M,T100482003464,Voters ID,Tanzania,09-10-1994,714253678,744176191,G2 Test,EISA - VTL ,DAR,KAWE,TECNOTECNO-C8,NewReg,Pending,Pending,Pending,Pending,Pending,,Fail,Verification Declined,4,2.2.13,Good,Joyce Joyce,2017-11-02 09:36:21,#Correct Name#Correct DOB#Correct Gender#Correct Nationality #Correct ID Type#Correct ID Number#Visible and Match Portrait Image#Readable and Match ID Image#Readable and Match ID Image#Submitted Signature,#Correct Name#Wrong DOB#Wrong Gender#Wrong Nationality#Wrong I,Vodacom Manage,2017-11-09 12:37:56,2017-11-09 12:37:56,55,NULL,NULL,  :: 2017-11-09 12:37:56 - 1
2017-09-21,743699828,MTWALE MTAKAMA,M,T100482003464,Voters ID,Tanzania,05-10-1989,714253674,744176191,G2 Test,EISA - VTL ,DAR,KAWE,TECNOTECNO-C8,Re-Reg,Pending,Pending,Pending,Pending,Fail,["ID number has been used too many registrations of the same ID number"],Fail,Verification Declined,4,2.2.13,Bad,Joyce Joyce,2017-11-02 09:35:04,InternalVerification: ["ID number has been used too many registrations of the same ID number"],#Invalid Name#Wrong DOB#Wrong Gender#Wrong Nationality#Wrong I,Oscar Makala,2017-11-09 15:46:21,2017-11-09 12:34:47,55,NULL,NULL,AmonitoringValidation
2017-09-21,744287914, MAAAA  QNYEEEEE,M,T100482003464,Drivers License (ZNZ),Tanzania,21-09-1999,714256771,744176191,G2 Test,EISA - VTL ,DAR,KAWE,TECNOTECNO-C8,Re-Reg,Pending,Pending,Pending,PENDING,Pending,Reset By EditRecord2,Pending,,4,2.2.13,Good,Joyce Joyce,2017-11-02 09:33:11,#Correct Name#Correct DOB#Correct Gender#Correct Nationality #Correct ID Type#Correct ID Number#Visible and Match Portrait Image#Readable and Match ID Image#Readable and Match ID Image#Submitted Signature,#Correct Name#Wrong DOB#Correct Gender#Wrong Nationality#Corre,Vodacom Manage,2017-11-09 12:34:25,2017-11-09 12:34:25,55,NULL,NULL,  :: 2017-11-09 12:34:25 - 1
2017-09-21,744287914,THOBIAS MTAKAMA,M,T100482003464,Voters ID,Tanzania,05-10-1989,714253678,744176191,G2 Test,EISA - VTL ,DAR,KAWE,TECNOTECNO-C8,Re-Reg,Pending,Pending,Pending,PENDING,Pending,Reset By EditRecord2,Pending,,4,2.2.13,Good,Vodacom Manage,2017-11-09 12:34:25,#Correct Name#Correct DOB#Correct Gender#Correct Nationality #Correct ID Type#Correct ID Number#Visible and Match Portrait Image#Readable and Match ID Image#Readable and Match ID Image#Submitted Signature,#Misspelled Name#Wrong DOB#Correct Gender#Correct Nationality #Correct ID Type#Correct ID Number#Visible and Match Portrait Image#Readable and Match ID Image#Readable and Match ID Image#Submitted Signature, , ,22,-1,Joyce Joyce,2017-11-09,lock
2017-09-21,743699828,KI MOON,M,T100482003464,Drivers License (ZNZ),Tanzania,21-09-1999,714234562,744176191,G2 Test,EISA - VTL ,DAR,KAWE,TECNOTECNO-C8,Re-Reg,Pending,Pending,Pending,DECLINED,Fail,["Invalid customer name"],Pending,,4,2.2.13,Good,Vodacom Manage,2017-11-09 12:34:02,#Correct Name#Correct DOB#Correct Gender#Correct Nationality #Correct ID Type#Correct ID Number#Visible and Match Portrait Image#Readable and Match ID Image#Readable and Match ID Image#Submitted Signature,#Correct Name#Correct DOB#Correct Gender#Correct Nationality #Correct ID Type#Correct ID Number#Visible and Match Portrait Image#Readable and Match ID Image#Readable and Match ID Image#Submitted Signature, , ,20,-1,Joyce Joyce,2017-11-09,lock
2017-09-21,744200892,Rose Marry,F,T100482003464,Voters ID,Tanzania,18-08-1990,752672970,766238403,TESTLAB LAB,EISA - VTL ,DAR,KINONDONI,TECNOTECNO W2,NewReg,Pending,Pending,Pending,Pending,Pending,,Pending,,4,2.2.13,Good,Joyce Joyce,2017-11-02 09:30:48,#Correct Name#Correct DOB#Correct Gender#Correct Nationality #Correct ID Type#Correct ID Number#Visible and Match Portrait Image#Readable and Match ID Image#Readable and Match ID Image#Submitted Signature,#Correct Name#Correct DOB#Correct Gender#Correct Nationality #,Vodacom Manage,2017-11-09 12:31:13,2017-11-09 12:31:13,55,NULL,NULL,  :: 2017-11-09 12:31:13 - 345
2017-09-21,762437040,Jennifer Kishai,F,T100482003464,Voters ID,Tanzania,19-08-1990,752672970,766238403,TESTLAB LAB,EISA - VTL ,DAR,UKONGA,TECNOTECNO W2,Re-Reg,Pending,Pending,Pending,DECLINED,Fail,["ID usage has reached its limit. Too many registrations with the same ID Type and ID number" "ID number has been used too many registrations of the same ID number"],Pending,,4,2.2.13,Good,Joyce Joyce,2017-11-02 09:30:25,#Correct Name#Correct DOB#Correct Gender#Correct Nationality #Correct ID Type#Correct ID Number#Visible and Match Portrait Image#Readable and Match ID Image#Readable and Match ID Image#Submitted Signature,#Correct Name#Correct DOB#Correct Gender#Correct Nationality #,Vodacom Manage,2017-11-09 12:30:56,2017-11-09 12:30:56,55,NULL,NULL,  :: 2017-11-09 12:30:56 - 345
2017-09-21,762437040,Jenifa Kishai,F,T100482003464,Voters ID,Tanzania,21-09-1999,748755547,766238403,TESTLAB LAB,EISA - VTL ,DAR,UKONGA,TECNOTECNO W2,NewReg,Pending,Pending,Pending,Pending,Pending,,Pending,,4,2.2.13,Good,Vodacom Manage,2017-10-27 10:25:07,#Correct Name#Correct DOB#Correct Gender#Correct Nationality #Correct ID Type#Correct ID Number#Visible and Match Portrait Image#Readable and Match ID Image#Readable and Match ID Image#Submitted Signature,, ,2017-11-09 12:29:17,2017-11-09 12:29:17,55,NULL,NULL,  :: 2017-11-09 12:29:17 - 345
2017-09-21,762437040,Bakari Nangwalanywa,M,T100482003464,Voters ID,Tanzania,17-08-1993,758235488,766238403,TESTLAB LAB,EISA - VTL ,DAR,KIBAHA,TECNOTECNO W2,NewReg,Pending,Pending,Pending,Pending,Pending,,Pending,,4,2.2.13,Good,Vodacom Manage,2017-10-27 10:24:51,#Correct Name#Correct DOB#Correct Gender#Correct Nationality #Correct ID Type#Correct ID Number#Visible and Match Portrait Image#Readable and Match ID Image#Readable and Match ID Image#Submitted Signature,, ,2017-11-09 12:29:03,2017-11-09 12:29:03,55,NULL,NULL,  :: 2017-11-09 12:29:03 - 345
2017-09-21,763328967,Jenny Danny,M,T100482003464,Voters ID,Tanzania,17-08-1993,744200892,766238403,TESTLAB LAB,EISA - VTL ,DAR,TEMEKE,TECNOTECNO W2,NewReg,Pending,Pending,Pending,Pending,Pending,,Pending,,4,2.2.13,Good,Vodacom Manage,2017-10-27 10:24:41,#Correct Name#Correct DOB#Correct Gender#Correct Nationality #Correct ID Type#Correct ID Number#Visible and Match Portrait Image#Readable and Match ID Image#Readable and Match ID Image#Submitted Signature,, ,2017-11-09 12:25:33,2017-11-09 12:25:33,55,NULL,NULL,  :: 2017-11-09 12:25:33 - 345
2017-09-21,763328967,Bakari Nangwa,F,T100482003464,Voters ID,Tanzania,21-09-1999,758282858,766238403,TESTLAB LAB,EISA - VTL ,DAR,KINONDONI,TECNOTECNO W2,NewReg,Pending,Pending,Pending,Pending,Pending,,Pending,,4,2.2.13,Good,Vodacom Manage,2017-11-09 12:25:24,#Correct Name#Correct DOB#Correct Gender#Correct Nationality #Correct ID Type#Correct ID Number#Visible and Match Portrait Image#Readable and Match ID Image#Readable and Match ID Image#Submitted Signature,, , ,2017-11-09 12:25:24,55,NULL,NULL,  :: 2017-11-09 12:25:24 - 345
2017-09-21,744200892, Baraka  Nagwa,M,T100482003464,Voters ID,Tanzania,21-09-1999,752685868,766238403,TESTLAB LAB,EISA - VTL ,DAR,KINONDONI,TECNOTECNO W2,NewReg,Pending,Pending,Pending,PENDING,Pending,Reset By EditRecord2,Pending,,4,2.2.13,Good,Joyce Joyce,2017-11-01 19:43:10,#Correct Name#Correct DOB#Correct Gender#Correct Nationality #Correct ID Type#Correct ID Number#Visible and Match Portrait Image#Readable and Match ID Image#Readable and Match ID Image#Submitted Signature,#Correct Name#Wrong DOB#Correct Gender#Wrong Nationality#Corre,Vodacom Manage,2017-11-09 12:25:17,2017-11-09 12:25:17,55,NULL,NULL,  :: 2017-11-09 12:25:17 - 345
2017-09-22,763722991,FRANK Remmy,M,T100482003464,National ID,Tanzania,20-10-1981,758254578,766238403,TESTLAB LAB,EISA - VTL ,DAR,KINONDONI,TECNOTECNO W2,NewReg,Pending,Pending,Pending,PENDING,Pending,Reset By EditRecord2,Pending,,4,2.2.13,Good,Joyce Joyce,2017-11-01 19:42:21,#Correct Name#Correct DOB#Correct Gender#Correct Nationality #Correct ID Type#Correct ID Number#Visible and Match Portrait Image#Readable and Match ID Image#Readable and Match ID Image#Submitted Signature,#Misspelled Name#Correct DOB#Wrong Gender#Wrong Nationality#Co,Vodacom Manage,2017-11-09 12:25:13,2017-11-09 12:25:13,55,NULL,NULL,  :: 2017-11-09 12:25:13 - 345
2017-09-22,763711925,Frank Remmy,M,T100482003464,National ID,Tanzania,20-10-1981,745258740,766238403,TESTLAB LAB,EISA - VTL ,DAR,KINONDONI,TECNOTECNO W2,NewReg,Pending,Pending,Pending,PENDING,Pending,,Pending,,4,2.2.13,Good,Vodacom Manage,2017-10-27 10:22:37,#Correct Name#Correct DOB#Correct Gender#Correct Nationality #Correct ID Type#Correct ID Number#Visible and Match Portrait Image#Readable and Match ID Image#Readable and Match ID Image#Submitted Signature,, ,2017-11-09 12:25:08,2017-11-09 12:25:08,55,NULL,NULL,  :: 2017-11-09 12:25:08 - 345
2017-09-22,757831514,Frank Remmy,M,T100482003464,National ID,Uganda,20-10-1981,753575756,746146703,TEST LABDEMO,EISA - VTL ,DAR,KINONDONI,HUAWEIHUAWEI Y300-0151,NewReg,Pending,Pending,Pending,PENDING,Pending,,Pending,,4,2.2.13,Good,Vodacom Manage,2017-11-09 12:17:31,#Correct Name#Correct DOB#Correct Gender#Correct Nationality #Correct ID Type#Correct ID Number#Visible and Match Portrait Image#Readable and Match ID Image#Readable and Match ID Image#Submitted Signature,, , ,2017-11-09 12:17:31,55,NULL,NULL,  :: 2017-11-09 12:17:31 - 1
2017-09-22,764441020,Frank Remmy,F,T100482003464,Voters ID,Tanzania,22-09-1982,753575756,746146703,TEST LABDEMO,EISA - VTL ,DAR,KINONDONI,HUAWEIHUAWEI Y300-0151,Re-Reg,Pending,Pending,Pending,DECLINED,Fail,["ID usage has reached its limit. Too many registrations with the same ID Type and ID number" "ID number has been used too many registrations of the same ID number"],Pending,,4,2.2.13,Good,Vodacom Manage,2017-11-09 12:17:30,#Correct Name#Correct DOB#Correct Gender#Correct Nationality #Correct ID Type#Correct ID Number#Visible and Match Portrait Image#Readable and Match ID Image#Readable and Match ID Image#Submitted Signature,#Correct Name#Correct DOB#Correct Gender#Correct Nationality #Correct ID Type#Correct ID Number#Visible and Match Portrait Image#Readable and Match ID Image#Readable and Match ID Image#Submitted Signature, , ,7,3,Vodacom Manage,2017-11-09,
2017-09-25,744253678,Test Test,M,T100482003464,Drivers License (ZNZ),Tanzania,22-09-1999,714253678,744176191,G2 Test,EISA - VTL ,DAR,KAWE,TECNOTECNO L8 Lite,NewReg,Pending,Pending,Pending,DECLINED,Fail,decline from ICAP.,Pending,,4,2.2.13,Good,Vodacom Manage,2017-10-27 10:15:09,#Correct Name#Correct DOB#Correct Gender#Correct Nationality #Correct ID Type#Correct ID Number#Visible and Match Portrait Image#Readable and Match ID Image#Readable and Match ID Image#Submitted Signature,, ,2017-11-09 12:12:05,2017-11-09 12:12:05,55,NULL,NULL,  :: 2017-11-09 12:12:05 - 345
2017-09-25,769725310,Test Test,M,T100482003464,Voters ID (ZNZ),Tanzania,25-09-1999,714253678,744176191,G2 Test,EISA - VTL ,DAR,KAWE,TECNOTECNO L8 Lite,NewReg,Pending,Pending,Pending,PENDING,Pending,,Pending,,4,2.2.13,Good,Vodacom Manage,2017-10-27 10:14:51,#Correct Name#Correct DOB#Correct Gender#Correct Nationality #Correct ID Type#Correct ID Number#Visible and Match Portrait Image#Readable and Match ID Image#Readable and Match ID Image#Submitted Signature,, ,2017-11-09 12:12:02,2017-11-09 12:12:02,55,NULL,NULL,  :: 2017-11-09 12:12:02 - 345
2017-09-25,769725310,MTWALE MTAKAMA,M,T100482003464,Voters ID,Tanzania,05-10-1989,714253678,744176191,G2 Test,EISA - VTL ,DAR,KAWE,TECNOTECNO L8 Lite,NewReg,Pending,Pending,Pending,PENDING,Pending,,Pending,,4,2.2.13,Good,Joyce Joyce,2017-11-09 12:12:02,#Correct Name#Correct DOB#Correct Gender#Correct Nationality #Correct ID Type#Correct ID Number#Visible and Match Portrait Image#Readable and Match ID Image#Readable and Match ID Image#Submitted Signature,#Correct Name#Correct DOB#Correct Gender#Wrong Nationality#Correct ID Type#Correct ID Number#Visible and Match Portrait Image#Readable and Match ID Image#Readable and Match ID Image#Submitted Signature,Vodacom Manage,2017-11-09 12:20:43,20,3,Vodacom Manage,2017-11-09,
2017-09-25,769725310,MTWALE MTAKAMA,M,T100482003464,Voters ID (ZNZ),Tanzania,05-10-1989,714253678,744176191,G2 Test,EISA - VTL ,DAR,KAWE,TECNOTECNO L8 Lite,NewReg,Pending,Pending,Pending,PENDING,Pending,,Pending,,4,2.2.13,Good,Joyce Joyce,2017-11-09 12:11:48,#Correct Name#Correct DOB#Correct Gender#Correct Nationality #Correct ID Type#Correct ID Number#Visible and Match Portrait Image#Readable and Match ID Image#Readable and Match ID Image#Submitted Signature,#Correct Name#Correct DOB#Wrong Gender#Correct Nationality #Correct ID Type#Correct ID Number#Visible and Match Portrait Image#Readable and Match ID Image#Readable and Match ID Image#Submitted Signature,Vodacom Manage,2017-11-09 12:20:23,15,-1,Joyce Joyce,2017-11-09,lock
2017-09-25,769725310,When Yuan,M,T100482003464,Drivers License (ZNZ),Tanzania,25-09-1999,714253678,744176191,G2 Test,EISA - VTL ,DAR,KAWE,TECNOTECNO L8 Lite,NewReg,Pending,Pending,Pending,PENDING,Pending,,Pending,,4,2.2.13,Good,Vodacom Manage,2017-11-09 12:11:24,#Correct Name#Correct DOB#Correct Gender#Correct Nationality #Correct ID Type#Correct ID Number#Visible and Match Portrait Image#Readable and Match ID Image#Readable and Match ID Image#Submitted Signature,, , ,2017-11-09 12:11:24,55,NULL,NULL,  :: 2017-11-09 12:11:24 - 345
2017-09-25,769725310,CHUAN Jung,M,T100482003464,Drivers License (ZNZ),Tanzania,23-09-1999,714253678,744176191,G2 Test,EISA - VTL ,DAR,KAWE,TECNOTECNO L8 Lite,NewReg,Pending,Pending,Pending,PENDING,Pending,Reset By EditRecord2,Pending,,4,2.2.13,Good,Joyce Joyce,2017-11-09 12:11:34,#Correct Name#Correct DOB#Correct Gender#Correct Nationality #Correct ID Type#Correct ID Number#Visible and Match Portrait Image#Readable and Match ID Image#Readable and Match ID Image#Submitted Signature,#Correct Name#Correct DOB#Wrong Gender#Correct Nationality #Correct ID Type#Correct ID Number#Visible and Match Portrait Image#Readable and Match ID Image#Readable and Match ID Image#Submitted Signature,Vodacom Manage,2017-11-09 12:20:07,20,-1,Joyce Joyce,2017-11-09,lock
2017-09-25,769725310,Jung Hyun,M,T100482003464,Drivers Licence,Tanzania,15-09-1999,742536788,744176191,G2 Test,EISA - VTL ,DAR,KAWE,TECNOTECNO L8 Lite,NewReg,Pending,Pending,Pending,Pending,Pending,,Fail,Verification Declined,4,2.2.13,Good,Vodacom Manage,2017-11-09 12:11:21,#Correct Name#Correct DOB#Correct Gender#Correct Nationality #Correct ID Type#Correct ID Number#Visible and Match Portrait Image#Readable and Match ID Image#Readable and Match ID Image#Submitted Signature,, , ,2017-11-09 12:11:21,55,NULL,NULL,  :: 2017-11-09 12:11:21 - 345
2017-09-26,764142264,Jung Chuan,M,T100482003464,Drivers License (ZNZ),Tanzania,26-09-1999,714253674,744176191,G2 Test,EISA - VTL ,DAR,KAWE,TECNOTECNO L8 Lite,NewReg,Pending,Pending,Pending,PENDING,Pending,,Pending,,4,2.2.13,Good,Vodacom Manage,2017-10-26 12:11:49,#Correct Name#Correct DOB#Correct Gender#Correct Nationality #Correct ID Type#Correct ID Number#Visible and Match Portrait Image#Readable and Match ID Image#Readable and Match ID Image#Submitted Signature,, ,2017-11-09 12:11:17,2017-11-09 12:11:17,55,NULL,NULL,  :: 2017-11-09 12:11:17 - 345
2017-09-26,744287914, YEN   JUAG ,M,T100482003464, ,Tanzania,26-09-1999,714253678,744176191,G2 Test,EISA - VTL ,DAR,KAWE,TECNOTECNO-C8,NewReg,Pending,Pending,Pending,PENDING,Pending,Reset By EditRecord2,Pending,,4,2.2.13,Good,Vodacom Manage,2017-11-09 12:11:11,#Correct Name#Correct DOB#Correct Gender#Correct Nationality #Correct ID Type#Correct ID Number#Visible and Match Portrait Image#Readable and Match ID Image#Readable and Match ID Image#Submitted Signature,, , ,2017-11-09 12:11:11,55,NULL,NULL,  :: 2017-11-09 12:11:11 - 345
2017-09-26,759966077,Dimitrios Lintis,M,T100482003464,Passport,Greece,15-05-1976,753575756,746146703,TEST LABDEMO,EISA - VTL ,DAR,KINONDONI,HUAWEIHUAWEI Y300-0151,NewReg,Pending,Pending,Pending,PENDING,Pending,,Pending,,4,2.2.13,Good,Joyce Joyce,2017-11-09 12:11:21,#Correct Name#Correct DOB#Correct Gender#Correct Nationality #Correct ID Type#Correct ID Number#Visible and Match Portrait Image#Readable and Match ID Image#Readable and Match ID Image#Submitted Signature,#Misspelled Name#Correct DOB#Correct Gender#Correct Nationality #Correct ID Type#Correct ID Number#Visible and Match Portrait Image#Readable and Match ID Image#Readable and Match ID Image#Submitted Signature,Vodacom Manage,2017-11-09 12:19:47,21,-1,Joyce Joyce,2017-11-09,lock
2017-09-27,744287914,CHAN WENG,M,T100482003464,Voters ID (ZNZ),Tanzania,25-09-1999,714253678,744176191,G2 Test,EISA - VTL ,DAR,KAWE,TECNOTECNO-C8,NewReg,Pending,Pending,Pending,PENDING,Pending,,Pending,,4,2.2.13,Good,Vodacom Manage,2017-10-26 11:54:57,#Correct Name#Correct DOB#Correct Gender#Correct Nationality #Correct ID Type#Correct ID Number#Visible and Match Portrait Image#Readable and Match ID Image#Readable and Match ID Image#Submitted Signature,, ,2017-11-09 12:11:07,2017-11-09 12:11:07,55,NULL,NULL,  :: 2017-11-09 12:11:07 - 345
2017-09-27,744287914, YUNA Kyun,M,T100482003464,Drivers License (ZNZ),Tanzania,24-09-1999,714253614,744176191,G2 Test,EISA - VTL ,DAR,KAWE,TECNOTECNO-C8,NewReg,Pending,Pending,Pending,PENDING,Pending,Reset By EditRecord2,Pending,,4,2.2.13,Good,Vodacom Manage,2017-10-26 11:54:25,#Correct Name#Correct DOB#Correct Gender#Correct Nationality #Correct ID Type#Correct ID Number#Visible and Match Portrait Image#Readable and Match ID Image#Readable and Match ID Image#Submitted Signature,, ,2017-11-09 12:11:03,2017-11-09 12:11:03,55,NULL,NULL,  :: 2017-11-09 12:11:03 - 345
2017-09-27,744287914,Tyuk Yen,M,T100482003464,Zanzibar Resident Id,Tanzania,24-09-1999,714253678,744176191,G2 Test,EISA - VTL ,DAR,KAWE,TECNOTECNO-C8,NewReg,Pending,Pending,Pending,Pending,Pending,,Fail,Verification Declined,4,2.2.13,Good,Vodacom Manage,2017-11-09 12:10:58,#Correct Name#Correct DOB#Correct Gender#Correct Nationality #Correct ID Type#Correct ID Number#Visible and Match Portrait Image#Readable and Match ID Image#Readable and Match ID Image#Submitted Signature,, , ,2017-11-09 12:10:58,55,NULL,NULL,  :: 2017-11-09 12:10:58 - 345
2017-09-27,743615079,Yoo Weee,M,T100482003464,Drivers License (ZNZ),Tanzania,17-09-1999,788523354,744176191,G2 Test,EISA - VTL ,DAR,KAWE,TECNOTECNO-C8,Re-Reg,Pending,Pending,Pending,PENDING,Pending,Reset By EditRecord2,Pending,,4,2.2.13,Good,Joyce Joyce,2017-11-09 12:11:08,#Correct Name#Correct DOB#Correct Gender#Correct Nationality #Correct ID Type#Correct ID Number#Visible and Match Portrait Image#Readable and Match ID Image#Readable and Match ID Image#Submitted Signature,#Correct Name#Correct DOB#Correct Gender#Wrong Nationality#Correct ID Type#Correct ID Number#Visible and Match Portrait Image#Readable and Match ID Image#Readable and Match ID Image#Submitted Signature,Vodacom Manage,2017-11-09 12:19:20,2017-11-09 12:19:20,55,NULL,NULL,  :: 2017-11-09 12:10:54 - 345  :: 2017-11-09 12:19:20 - 345
2017-09-27,743615079, John Makin,M,T100482003464,Drivers License (ZNZ),Tanzania,24-09-1999,765431425,744176191,G2 Test,EISA - VTL ,DAR,KAWE,TECNOTECNO-C8,NewReg,Pending,Pending,Pending,PENDING,Pending,Reset By EditRecord2,Pending,,4,2.2.13,Good,Vodacom Manage,2017-10-26 11:48:42,#Correct Name#Correct DOB#Correct Gender#Correct Nationality #Correct ID Type#Correct ID Number#Visible and Match Portrait Image#Readable and Match ID Image#Readable and Match ID Image#Submitted Signature,, ,2017-11-09 12:10:54,2017-11-09 12:10:54,55,NULL,NULL,  :: 2017-11-09 12:10:54 - 345
2017-09-27,743615079,Well Said,M,T100482003464,Drivers License (ZNZ),Tanzania,24-09-1999,714253678,744176191,G2 Test,EISA - VTL ,DAR,KAWE,TECNOTECNO-C8,NewReg,Pending,Pending,Pending,Pending,Pending,,Fail,Verification Declined,4,2.2.13,Good,Vodacom Manage,2017-11-09 12:10:51,#Correct Name#Correct DOB#Correct Gender#Correct Nationality #Correct ID Type#Correct ID Number#Visible and Match Portrait Image#Readable and Match ID Image#Readable and Match ID Image#Submitted Signature,, , ,2017-11-09 12:10:51,55,NULL,NULL,  :: 2017-11-09 12:10:51 - 345
2017-09-27,743615079,Test Lab,M,T100482003464,Drivers License (ZNZ),Tanzania,10-09-1999,714253614,744176191,G2 Test,EISA - VTL ,DAR,KAWE,TECNOTECNO-C8,NewReg,Pending,Pending,Pending,PENDING,Pending,,Pending,,4,2.2.13,Good,Vodacom Manage,2017-10-26 11:43:53,#Correct Name#Correct DOB#Correct Gender#Correct Nationality #Correct ID Type#Correct ID Number#Visible and Match Portrait Image#Readable and Match ID Image#Readable and Match ID Image#Submitted Signature,, ,2017-11-09 12:10:47,2017-11-09 12:10:47,55,NULL,NULL,  :: 2017-11-09 12:10:47 - 345
2017-09-27,743615079,Johnson Voice,M,T100482003464,Drivers License (ZNZ),Tanzania,24-09-1999,714253678,744176191,G2 Test,EISA - VTL ,DAR,KAWE,TECNOTECNO-C8,NewReg,Pending,Pending,Pending,PENDING,Pending,Reset By EditRecord2,Pending,,4,2.2.13,Good,Vodacom Manage,2017-11-09 12:10:42,#Correct Name#Correct DOB#Correct Gender#Correct Nationality #Correct ID Type#Correct ID Number#Visible and Match Portrait Image#Readable and Match ID Image#Readable and Match ID Image#Submitted Signature,, , ,2017-11-09 12:10:42,55,NULL,NULL,  :: 2017-11-09 12:10:42 - 345
2017-09-27,743615079,Sddff TEST,M,T100482003464,Drivers License (ZNZ),Tanzania,24-09-1999,714253678,744176191,G2 Test,EISA - VTL ,DAR,KAWE,TECNOTECNO-C8,NewReg,Pending,Pending,Pending,PENDING,Pending,,Pending,,4,2.2.13,Good,Joyce Joyce,2017-11-01 12:47:09,#Correct Name#Correct DOB#Correct Gender#Correct Nationality #Correct ID Type#Correct ID Number#Visible and Match Portrait Image#Readable and Match ID Image#Readable and Match ID Image#Submitted Signature,#Correct Name#Wrong DOB#Correct Gender#Wrong Nationality#Corre,Vodacom Manage,2017-11-09 12:10:38,2017-11-09 12:10:38,55,NULL,NULL,  :: 2017-11-09 12:10:38 - 345
2017-09-27,743615079,Don Just,M,T100482003464,Drivers License (ZNZ),Tanzania,22-09-1999,714253622,744176191,G2 Test,EISA - VTL ,DAR,KAWE,TECNOTECNO-C8,NewReg,Pending,Pending,Pending,PENDING,Pending,,Pending,,4,2.2.13,Good,Joyce Joyce,2017-11-01 12:46:27,#Correct Name#Correct DOB#Correct Gender#Correct Nationality #Correct ID Type#Correct ID Number#Visible and Match Portrait Image#Readable and Match ID Image#Readable and Match ID Image#Submitted Signature,#Misspelled Name#Correct DOB#Correct Gender#Wrong Nationality#,Vodacom Manage,2017-11-09 12:10:33,2017-11-09 12:10:33,55,NULL,NULL,  :: 2017-11-09 12:10:33 - 345
2017-09-27,744686119,Gtwenty Dnine,M,T100482003464,Drivers License (ZNZ),Tanzania,24-09-1999,714253678,744176191,G2 Test,EISA - VTL ,DAR,KAWE,TECNOTECNO-C8,NewReg,Pending,Pending,Pending,PENDING,Pending,,Pending,,4,2.2.13,Good,Joyce Joyce,2017-11-09 12:10:54,#Correct Name#Correct DOB#Correct Gender#Correct Nationality #Correct ID Type#Correct ID Number#Visible and Match Portrait Image#Readable and Match ID Image#Readable and Match ID Image#Submitted Signature,#Misspelled Name#Correct DOB#Correct Gender#Correct Nationality #Correct ID Type#Correct ID Number#Visible and Match Portrait Image#Readable and Match ID Image#Readable and Match ID Image#Submitted Signature,Vodacom Manage,2017-11-09 12:19:26,18,-1,Joyce Joyce,2017-11-09,lock
2017-09-28,754253214,fhdjjdhdd ygsjdjd,M,T100482003464,Drivers Licence,mtanzania,22-09-2006,753610903,744176191,G2 Test,EISA - VTL ,DAR,KAWE,TECNOTECNO-C8,Re-Reg,Pending,Pending,Pending,DECLINED,Fail,["Invalid customer age" "ID number has been used too many registrations of the same ID number"],Pending,,4,2.2.13,Good,Vodacom Manage,2017-11-09 12:10:20,#Correct Name#Correct DOB#Correct Gender#Correct Nationality #Correct ID Type#Correct ID Number#Visible and Match Portrait Image#Readable and Match ID Image#Readable and Match ID Image#Submitted Signature,#Correct Name#Correct DOB#Correct Gender#Correct Nationality #, , ,2017-11-09 12:10:20,55,NULL,NULL,  :: 2017-11-09 12:10:20 - 345
2017-09-28,754253258,TRYPHONE RWEZAURA,M,T100482003464,Voters ID,mtanzania,22-09-2006,753610903,744176191,G2 Test,EISA - VTL ,DAR,KINONDONI,TECNOTECNO-C8,Re-Reg,Pending,Pending,Pending,DECLINED,Fail,["Invalid customer age" "ID number has been used too many registrations of the same ID number"],Pending,,4,2.2.13,Good,Vodacom Manage,2017-11-09 12:10:14,#Correct Name#Correct DOB#Correct Gender#Correct Nationality #Correct ID Type#Correct ID Number#Visible and Match Portrait Image#Readable and Match ID Image#Readable and Match ID Image#Submitted Signature,#Correct Name#Correct DOB#Correct Gender#Correct Nationality #, , ,2017-11-09 12:10:14,-1,Vodacom Manager,2017-11-09,lock
2017-09-28,754321425,TRYPHONE RWEZAURA,M,T100482003464,Voters ID,mtanzania,22-09-2006,754213225,744176191,G2 Test,EISA - VTL ,DAR,KINONDONI,TECNOTECNO-C8,Re-Reg,Pending,Pending,Pending,DECLINED,Fail,["Invalid customer age" "ID number has been used too many registrations of the same ID number"],Pending,,4,2.2.13,Good,Joyce Joyce,2017-11-09 12:10:30,#Correct Name#Correct DOB#Correct Gender#Correct Nationality #Correct ID Type#Correct ID Number#Visible and Match Portrait Image#Readable and Match ID Image#Readable and Match ID Image#Submitted Signature,#Correct Name#Correct DOB#Correct Gender#Correct Nationality #Correct ID Type#Correct ID Number#Visible and Match Portrait Image#Readable and Match ID Image#Readable and Match ID Image#Submitted Signature,Vodacom Manage,2017-11-09 12:10:30,34,-1,Joyce Joyce,2017-11-09,lock
2017-09-28,756231258,TRYPHONE RWEZAURA,M,T100482003464,Voters ID,mtanzania,22-09-2006,785653214,744176191,G2 Test,EISA - VTL ,DAR,KINONDONI,TECNOTECNO-C8,Re-Reg,Pending,Pending,Pending,DECLINED,Fail,["Invalid customer age" "ID number has been used too many registrations of the same ID number"],Pending,,4,2.2.13,Good,Joyce Joyce,2017-11-09 12:09:55,#Correct Name#Correct DOB#Correct Gender#Correct Nationality #Correct ID Type#Correct ID Number#Visible and Match Portrait Image#Readable and Match ID Image#Readable and Match ID Image#Submitted Signature,#Correct Name#Correct DOB#Correct Gender#Correct Nationality #Correct ID Type#Wrong ID Number#Visible and Match Portrait Image#Readable and Match ID Image#Readable and Match ID Image#Submitted Signature,Vodacom Manage,2017-11-09 12:19:07,26,-1,Joyce Joyce,2017-11-09,lock
2017-09-29,742537534,Yusufu Yusufu,M,T100482003464,Voters ID,mtanzania,22-09-2006,752672970,746146703,TEST LABDEMO,EISA - VTL ,DAR,KINONDONI,HUAWEIHUAWEI Y300-0151,Re-Reg,Pending,Pending,Pending,DECLINED,Fail,["Invalid customer age" "ID number has been used too many registrations of the same ID number"],Pending,,4,2.2.13,Good,Vodacom Manage,2017-11-09 12:09:40,#Correct Name#Correct DOB#Correct Gender#Correct Nationality #Correct ID Type#Correct ID Number#Visible and Match Portrait Image#Readable and Match ID Image#Readable and Match ID Image#Submitted Signature,#Correct Name#Correct DOB#Correct Gender#Correct Nationality #, , ,2017-11-09 12:09:40,-1,Vodacom Manager,2017-11-09,lock
2017-09-29,742537534,Juma Jacob,F,T100482003464,National ID,mtanzania,22-09-2006,752672670,746146703,TEST LABDEMO,EISA - VTL ,DAR,KINONDONI,HUAWEIHUAWEI Y300-0151,Re-Reg,Pending,Pending,Pending,DECLINED,Fail,["Invalid customer age" "ID number has been used too many registrations of the same ID number"],Pending,,4,2.2.13,Good,voda staff,2017-10-31 18:13:35,#Correct Name#Correct DOB#Correct Gender#Correct Nationality #Correct ID Type#Correct ID Number#Visible and Match Portrait Image#Readable and Match ID Image#Readable and Match ID Image#Submitted Signature,#Correct Name#Wrong DOB#Correct Gender#Wrong Nationality#Corre,Vodacom Manage,2017-11-09 12:09:34,2017-11-09 12:09:34,-1,Vodacom Manager,2017-11-09,lock
2017-09-29,742537534,Jacob Runyoro,M,T100482003464,Drivers Licence,mtanzania,22-09-2006,753545756,766238403,TESTLAB LAB,EISA - VTL ,DAR,KINONDONI,VodafoneVFD 500,Re-Reg,Pending,Pending,Pending,DECLINED,Fail,["Invalid customer age" "ID number has been used too many registrations of the same ID number"],Pending,,4,2.2.13,Good,Joyce Joyce,2017-11-09 10:36:06,#Correct Name#Correct DOB#Correct Gender#Correct Nationality #Correct ID Type#Correct ID Number#Visible and Match Portrait Image#Readable and Match ID Image#Readable and Match ID Image#Submitted Signature,#Correct Name#Correct DOB#Wrong Gender#Correct Nationality #Co,Vodacom Manage,2017-11-09 12:09:30,2017-11-09 12:09:30,-1,Vodacom Manager,2017-11-09,lock
2017-09-29,742537534,Julius Maligila,M,T100482003464,National ID,Tanzania,27-05-1988,753575756,766238403,TESTLAB LAB,EISA - VTL ,DAR,KINONDONI,VodafoneVFD 500,Re-Reg,Pending,Pending,Pending,Pending,Fail,["ID number has been used too many registrations of the same ID number"],Fail,Verification Declined,4,2.2.13,Good,Joyce Joyce,2017-11-09 12:09:41,#Correct Name#Correct DOB#Correct Gender#Correct Nationality #Correct ID Type#Correct ID Number#Visible and Match Portrait Image#Readable and Match ID Image#Readable and Match ID Image#Submitted Signature,#Invalid Name#Correct DOB#Correct Gender#Correct Nationality #Correct ID Type#Correct ID Number#Visible and Match Portrait Image#Readable and Match ID Image#Readable and Match ID Image#Submitted Signature,Vodacom Manage,2017-11-09 12:09:41,14,-1,Joyce Joyce,2017-11-09,lock
2017-09-29,744287914,GEORGIA RWECHUNGURA,F,T100482003464,Voters ID,Tanzania,22-07-1989,714253614,744176191,G2 Test,EISA - VTL ,DAR,KAWE,TECNOTECNO-C8,Re-Reg,Pending,Pending,Pending,DECLINED,Fail,["ID number has been used too many registrations of the same ID number"],Pending,,4,2.2.13,Good,Vodacom Manage,2017-11-09 12:09:26,#Correct Name#Correct DOB#Correct Gender#Correct Nationality #Correct ID Type#Correct ID Number#Visible and Match Portrait Image#Readable and Match ID Image#Readable and Match ID Image#Submitted Signature,#Correct Name#Correct DOB#Correct Gender#Correct Nationality #Correct ID Type#Correct ID Number#Visible and Match Portrait Image#Readable and Match ID Image#Readable and Match ID Image#Submitted Signature, , ,2017-11-09 12:09:26,-1,Vodacom Manager,2017-11-09,lock
2017-09-29,744287914, GEORGIA  RWECHUNGURA,F,T100482003464,Voters ID,Tanzania,22-07-1989,714253678,744176191,G2 Test,EISA - VTL ,DAR,KAWE,TECNOTECNO-C8,Re-Reg,Pending,Pending,Pending,PENDING,Pending,Reset By EditRecord2,Pending,,4,2.2.13,Good,Vodacom Manage,2017-11-09 12:09:20,#Correct Name#Correct DOB#Correct Gender#Correct Nationality #Correct ID Type#Correct ID Number#Visible and Match Portrait Image#Readable and Match ID Image#Readable and Match ID Image#Submitted Signature,#Misspelled Name#Correct DOB#Correct Gender#Correct Nationality "} {"fieldName":"IDType" "fieldDescr, , ,2017-11-09 12:09:20,-1,Vodacom Manager,2017-11-09,lock
2017-09-29,743699828,GEORGIA RWECHUNGURA,M,T100482003464,Voters ID,Tanzania,22-07-1989,710362514,744176191,G2 Test,EISA - VTL ,DAR,KAWE,TECNOTECNO-C8,Re-Reg,Pending,Pending,Pending,PENDING,Pending,Reset By EditRecord2,Pending,,4,2.2.13,Good,Joyce Joyce,2017-11-09 12:09:27,#Correct Name#Correct DOB#Correct Gender#Correct Nationality #Correct ID Type#Correct ID Number#Visible and Match Portrait Image#Readable and Match ID Image#Readable and Match ID Image#Submitted Signature,#Correct Name#Correct DOB#Correct Gender#Correct Nationality #Wrong ID Type#Correct ID Number#Visible and Match Portrait Image#Readable and Match ID Image#Readable and Match ID Image#Submitted Signature,Vodacom Manage,2017-11-09 12:18:41,19,-1,Joyce Joyce,2017-11-09,lock
2017-09-29,743615079,MTWALE MTAKAMA,M,T100482003464,Voters ID,Tanzania,05-10-1989,714253612,744176191,G2 Test,EISA - VTL ,DAR,KAWE,TECNOTECNO-C8,NewReg,Pending,Pending,Pending,PENDING,Pending,,Pending,,4,2.2.13,Good,Vodacom Manage,2017-11-09 12:09:05,#Correct Name#Correct DOB#Correct Gender#Correct Nationality #Correct ID Type#Correct ID Number#Visible and Match Portrait Image#Readable and Match ID Image#Readable and Match ID Image#Submitted Signature,#Correct Name#Correct DOB#Correct Gender#Correct Nationality #Correct ID Type#Correct ID Number#Visible and Match Portrait Image#Readable and Match ID Image#Readable and Match ID Image#Submitted Signature, , ,2017-11-09 12:09:05,-1,Vodacom Manager,2017-11-09,lock
2017-09-29,744287914,GEORGIA RWECHUNGURA,F,T100482003464,Voters ID,Tanzania,22-07-1989,714253678,744176191,G2 Test,EISA - VTL ,DAR,KAWE,TECNOTECNO-C8,NewReg,Pending,Pending,Pending,PENDING,Pending,,Pending,,4,2.2.13,Good,Vodacom Manage,2017-11-09 12:08:58,#Correct Name#Correct DOB#Correct Gender#Correct Nationality #Correct ID Type#Correct ID Number#Visible and Match Portrait Image#Readable and Match ID Image#Readable and Match ID Image#Submitted Signature,#Misspelled Name#Correct DOB#Correct Gender#Correct Nationality "} {"fieldName":"IDType" "fieldDescr, , ,2017-11-09 12:08:58,-1,Vodacom Manager,2017-11-09,lock
2017-10-02,743123554,john paul,F,T100482003464,Voters ID,Tanzania,01-06-1994,753575756,766238403,TESTLAB LAB,EISA - VTL ,DAR,KINONDONI,VodafoneVFD 500,NewReg,Pending,Pending,Pending,PENDING,Pending,,Pending,,4,2.2.13,Good,Joyce Joyce,2017-11-09 12:09:12,#Correct Name#Correct DOB#Correct Gender#Correct Nationality #Correct ID Type#Correct ID Number#Visible and Match Portrait Image#Readable and Match ID Image#Readable and Match ID Image#Submitted Signature,#Correct Name#Wrong DOB#Correct Gender#Correct Nationality #Correct ID Type#Correct ID Number#Visible and Match Portrait Image#Readable and Match ID Image#Readable and Match ID Image#Submitted Signature,Vodacom Manage,2017-11-09 12:18:22,19,-1,Joyce Joyce,2017-11-09,lock
2017-10-02,743075733,musa anthony,F,T100482003464,Voters ID,Tanzania,01-12-1994,753575756,766238403,TESTLAB LAB,EISA - VTL ,DAR,KINONDONI,VodafoneVFD 500,NewReg,Pending,Pending,Pending,PENDING,Pending,Reset By EditRecord2,Pending,,4,2.2.13,Good,Joyce Joyce,2017-11-09 12:08:58,#Correct Name#Correct DOB#Correct Gender#Correct Nationality #Correct ID Type#Correct ID Number#Visible and Match Portrait Image#Readable and Match ID Image#Readable and Match ID Image#Submitted Signature,#Misspelled Name#Correct DOB#Correct Gender#Correct Nationality #Correct ID Type#Correct ID Number#Visible and Match Portrait Image#Readable and Match ID Image#Readable and Match ID Image#Submitted Signature,Vodacom Manage,2017-11-09 12:18:03,21,-1,Joyce Joyce,2017-11-09,lock
2017-10-02,743062516,Jacob Runyoro,M,T100482003464,Drivers Licence,Tanzania,09-06-1991,753575756,766238403,TESTLAB LAB,EISA - VTL ,DAR,KINONDONI,VodafoneVFD 500,NewReg,Pending,Pending,Pending,DECLINED,Fail,decline from ICAP.,Pending,,4,2.2.13,Good,Joyce Joyce,2017-11-09 12:08:45,#Correct Name#Correct DOB#Correct Gender#Correct Nationality #Correct ID Type#Correct ID Number#Visible and Match Portrait Image#Readable and Match ID Image#Readable and Match ID Image#Submitted Signature,#Correct Name#Correct DOB#Correct Gender#Correct Nationality #Correct ID Type#Wrong ID Number#Visible and Match Portrait Image#Readable and Match ID Image#Readable and Match ID Image#Submitted Signature,Vodacom Manage,2017-11-09 12:17:42,59,3,Vodacom Manage,2017-11-09,
2017-10-02,744041115, Julius  Maligila ,M,T100482003464,National ID,Tanzania,27-05-1988,753575756,766238403,TESTLAB LAB,EISA - VTL ,DAR,KINONDONI,VodafoneVFD 500,NewReg,Pending,Pending,Pending,PENDING,Pending,Reset By EditRecord2,Pending,,4,2.2.13,Good,Joyce Joyce,2017-11-09 12:08:28,#Correct Name#Correct DOB#Correct Gender#Correct Nationality #Correct ID Type#Correct ID Number#Visible and Match Portrait Image#Readable and Match ID Image#Readable and Match ID Image#Submitted Signature,#Correct Name#Correct DOB#Correct Gender#Wrong Nationality#Correct ID Type#Correct ID Number#Visible and Match Portrait Image#Readable and Match ID Image#Readable and Match ID Image#Submitted Signature,Vodacom Manage,2017-11-09 12:16:43,26,1,Vodacom Manage,2017-11-09,invalid_portrait
2017-10-02,744064168,yusufu yusufu,M,T100482003464,Voters ID,Tanzania,06-02-1988,753575756,766238403,TESTLAB LAB,EISA - VTL ,DAR,KINONDONI,VodafoneVFD 500,NewReg,Pending,Pending,Pending,PENDING,Pending,,Pending,,4,2.2.13,Good,Vodacom Manage,2017-11-09 12:08:10,#Correct Name#Correct DOB#Correct Gender#Correct Nationality #Correct ID Type#Correct ID Number#Visible and Match Portrait Image#Readable and Match ID Image#Readable and Match ID Image#Submitted Signature,#Correct Name#Correct DOB#Correct Gender#Correct Nationality #Correct ID Type#Correct ID Number#Visible and Match Portrait Image#Readable and Match ID Image#Readable and Match ID Image#Submitted Signature, , ,2017-11-09 12:08:10,-1,Vodacom Manager,2017-11-09,lock
2017-10-02,744085171,YUSUFU YUSUFU,M,T100482003464,Voters ID,Tanzania,06-02-1988,753575756,746146703,TEST LABDEMO,EISA - VTL ,DAR,KINONDONI,HUAWEIHUAWEI Y300-0151,NewReg,Pending,Pending,Pending,Pending,Pending,Reset By EditRecord2,Fail,Verification Declined,4,2.2.13,Good,Joyce Joyce,2017-11-09 12:08:14,#Correct Name#Correct DOB#Correct Gender#Correct Nationality #Correct ID Type#Correct ID Number#Visible and Match Portrait Image#Readable and Match ID Image#Readable and Match ID Image#Submitted Signature,#Invalid Name#Cannot be verified#Correct Gender#Correct Nationality #Correct ID Type#Correct ID Number#Visible and Match Portrait Image#Readable and Match ID Image#Readable and Match ID Image#Submitted Signature,Vodacom Manage,2017-11-09 12:08:14,20,3,Vodacom Manage,2017-11-09,
2017-10-02,743119085, JJJ  KKK,M,T100482003464,National ID,Tanzania,27-05-1988,752672980,766238403,TESTLAB LAB,EISA - VTL ,DAR,KINONDONI,VodafoneVFD 500,Re-Reg,Pending,Pending,Pending,Pending,Pending,Reset By EditRecord2,Fail,Verification Declined,4,2.2.13,Good,Joyce Joyce,2017-11-09 12:07:54,#Correct Name#Correct DOB#Correct Gender#Correct Nationality #Correct ID Type#Correct ID Number#Visible and Match Portrait Image#Readable and Match ID Image#Readable and Match ID Image#Submitted Signature,#Invalid Name#Correct DOB#Correct Gender#Correct Nationality #Correct ID Type#Correct ID Number#Visible and Match Portrait Image#Readable and Match ID Image#Readable and Match ID Image#Submitted Signature,Vodacom Manage,2017-11-09 12:07:54,13,-1,Vodacom Manage,2017-11-09,lock
2017-10-03,744554321,Nemes   Kimati ,M,T100482003464,Drivers Licence,Uganda,19-12-1985,752635823,766238403,TESTLAB LAB,EISA - VTL ,DAR,KINONDONI,VodafoneVFD 500,NewReg,Pending,Pending,Pending,PENDING,Pending,Reset By EditRecord2,Pending,,4,2.2.13,Good,Joyce Joyce,2017-11-09 12:07:41,#Correct Name#Correct DOB#Correct Gender#Correct Nationality #Correct ID Type#Correct ID Number#Visible and Match Portrait Image#Readable and Match ID Image#Readable and Match ID Image#Submitted Signature,#Name Mismatch#Correct DOB#Correct Gender#Correct Nationality #Correct ID Type#Correct ID Number#Visible and Match Portrait Image#Readable and Match ID Image#Readable and Match ID Image#Submitted Signature,Vodacom Manage,2017-11-09 12:16:16,18,2,Vodacom Manage,2017-11-09,blur_portrait,incorrect_dOB
2017-10-04,744218019,  Harriet   Lwakatare ,F,T100482003464,Passport,Tanzania,28-10-1977,752672970,766238403,TESTLAB LAB,EISA - VTL ,DAR,KINONDONI,VodafoneVFD 500,NewReg,Pending,Pending,Pending,PENDING,Pending,Reset By EditRecord2,Pending,,4,2.2.13,Not Verified,Vodacom Manage,2017-11-09 15:48:01,,#Correct Name#Correct DOB#Correct Gender#Correct Nationality #Correct ID Type#Correct ID Number#Visible and Match Portrait Image#Readable and Match ID Image#Readable and Match ID Image#Submitted Signature, , ,2017-11-09 15:48:01,55,NULL,NULL,  :: 2017-11-09 15:48:01 - 1
2017-10-04,743281748, julius  maligila,M,T100482003464,National ID,Zimbabwe,27-05-1988,753575756,766238403,TESTLAB LAB,EISA - VTL ,DAR,KINONDONI,VodafoneVFD 500,NewReg,Pending,Pending,Pending,PENDING,Pending,Reset By EditRecord2,Pending,,4,2.2.13,Good,Vodacom Manage,2017-11-09 15:48:01,#Correct Name#Correct DOB#Correct Gender#Correct Nationality #Correct ID Type#Correct ID Number#Visible and Match Portrait Image#Readable and Match ID Image#Readable and Match ID Image#Submitted Signature,#Correct Name#Correct DOB#Correct Gender#Correct Nationality #Correct ID Type#Correct ID Number#Visible and Match Portrait Image#Readable and Match ID Image#Readable and Match ID Image#Submitted Signature, , ,24,55,NULL,NULL,  :: 2017-11-09 15:47:37 - 1
2017-10-04,744225476,HAKIMU ATHUMANI,M,T100482003464,National ID,Tanzania,26-11-1980,752672970,766238403,TESTLAB LAB,EISA - VTL ,DAR,KINONDONI,VodafoneVFD 500,NewReg,Pending,Pending,Pending,PENDING,Pending,,Pending,,4,2.2.13,Good,Vodacom Manage,2017-11-09 15:47:36,#Correct Name#Correct DOB#Correct Gender#Correct Nationality #Correct ID Type#Correct ID Number#Visible and Match Portrait Image#Readable and Match ID Image#Readable and Match ID Image#Submitted Signature,#Correct Name#Correct DOB#Correct Gender#Correct Nationality #Correct ID Type#Correct ID Number#Visible and Match Portrait Image#Readable and Match ID Image#Readable and Match ID Image#Submitted Signature, , ,9,55,NULL,NULL,  :: 2017-11-09 15:47:27 - 1
2017-10-04,744225476, bdjdkf  bdkf,M,T100482003464,Drivers License (ZNZ),Tanzania,04-10-1999,714253672,744176191,G2 Test,EISA - VTL ,DAR,KAWE,TECNOTECNO-C8,NewReg,Pending,Pending,Pending,PENDING,Pending,Reset By EditRecord2,Pending,,4,2.2.13,Not Verified,Joyce Joyce,2017-11-09 12:06:52,,#Correct Name#Correct DOB#Correct Gender#Correct Nationality #Wrong ID Type#Correct ID Number#Visible and Match Portrait Image#Readable and Match ID Image#Readable and Match ID Image#Submitted Signature,Vodacom Manage,2017-11-09 14:23:52,2017-11-09 14:23:52,55,NULL,NULL,  :: 2017-11-09 14:23:52 - 1
2017-10-04,744287914,MTWALE MTAKAMA,M,T100482003464,Drivers License (ZNZ),Tanzania,05-10-1989,714253678,744176191,G2 Test,EISA - VTL ,DAR,KAWE,TECNOTECNO-C8,NewReg,Pending,Pending,Pending,DECLINED,Fail,decline from ICAP.,Pending,,4,2.2.13,Not Verified,Joyce Joyce,2017-11-09 12:06:38,,#Correct Name#Correct DOB#Correct Gender#Correct Nationality #Correct ID Type#Correct ID Number#Visible and Match Portrait Image#Readable and Match ID Image#Readable and Match ID Image#Submitted Signature,Vodacom Manage,2017-11-09 14:22:32,2017-11-09 14:22:32,55,NULL,NULL,  :: 2017-11-09 14:22:32 - 1
2017-10-05,755673466, Sam  Sam,M,T100482003464,Drivers License (ZNZ),Tanzania,05-10-1999,714253614,744176191,G2 Test,EISA - VTL ,DAR,KAWE,TECNOTECNO-C8,NewReg,Pending,Pending,Pending,PENDING,Pending,Reset By EditRecord2,Pending,,4,2.2.13,Good,Vodacom Manage,2017-11-09 14:22:31,#Correct Name#Correct DOB#Correct Gender#Correct Nationality #Correct ID Type#Correct ID Number#Visible and Match Portrait Image#Readable and Match ID Image#Readable and Match ID Image#Submitted Signature,#Correct Name#Correct DOB#Correct Gender#Correct Nationality #Correct ID Type#Correct ID Number#Visible and Match Portrait Image#Readable and Match ID Image#Readable and Match ID Image#Submitted Signature, , ,18,-1,Vodacom Manager,2017-11-09,lock
2017-10-05,744130504,Test Lab,M,T100482003464,Drivers License (ZNZ),Tanzania,05-10-1999,714253614,744176191,G2 Test,EISA - VTL ,DAR,KAWE,TECNOTECNO-C8,NewReg,Pending,Pending,Pending,DECLINED,Fail,decline from ICAP.,Pending,,4,2.2.13,Not Verified,Joyce Joyce,2017-11-09 14:21:48,,#Correct Name#Correct DOB#Correct Gender#Correct Nationality #Correct ID Type#Correct ID Number#Visible and Match Portrait Image#Readable and Match ID Image#Readable and Match ID Image#Submitted Signature, , ,2017-11-09 14:21:48,55,NULL,NULL,  :: 2017-11-09 14:21:48 - 345
2017-10-05,752321805,Validation tgdhfhfh,M,T100482003464,Drivers License (ZNZ),Tanzania,05-10-1999,714253678,744176191,G2 Test,EISA - VTL ,DAR,KAWE,TECNOTECNO-C8,NewReg,Pending,Pending,Pending,DECLINED,Fail,decline from ICAP.,Pending,,4,2.2.13,Good,Joyce Joyce,2017-11-09 14:21:48,#Correct Name#Correct DOB#Correct Gender#Correct Nationality #Correct ID Type#Correct ID Number#Visible and Match Portrait Image#Readable and Match ID Image#Readable and Match ID Image#Submitted Signature,#Correct Name#Correct DOB#Correct Gender#Correct Nationality #Correct ID Type#Correct ID Number#Visible and Match Portrait Image#Readable and Match ID Image#Readable and Match ID Image#Submitted Signature, , ,10,-1,Vodacom Manager,2017-11-09,lock
2017-10-12,756480951,Gloria Kabaka,F,T100482003464,Voters ID,Tanzania,12-10-1991,712658900,744176191,G2 Test,EISA - VTL ,DAR,KINONDONI,TECNOTECNO-C8,Re-Reg,Pending,Pending,Pending,DECLINED,Fail,["ID usage has reached its limit. Too many registrations with the same ID Type and ID number"],Pending,,4,2.2.13,Good,Joyce Joyce,2017-11-09 14:21:38,#Correct Name#Correct DOB#Correct Gender#Correct Nationality #Correct ID Type#Correct ID Number#Visible and Match Portrait Image#Readable and Match ID Image#Readable and Match ID Image#Submitted Signature,#Correct Name#Correct DOB#Correct Gender#Correct Nationality #Correct ID Type#Correct ID Number#Visible and Match Portrait Image#Readable and Match ID Image#Readable and Match ID Image#Submitted Signature, , ,13,-1,Vodacom Manager,2017-11-09,lock
2017-10-12,752159807,Anna Joseph,F,T100482003464,Voters ID,Tanzania,12-10-1997,714580236,744176191,G2 Test,EISA - VTL ,DAR,KINONDONI,TECNOTECNO-C8,NewReg,Pending,Pending,Pending,DECLINED,Fail,decline from ICAP.,Pending,,4,2.2.13,Not Verified,Joyce Joyce,2017-11-09 12:05:40,,#Misspelled Name#Correct DOB#Correct Gender#Correct Nationality #Correct ID Type#Correct ID Number#Visible and Match Portrait Image#Readable and Match ID Image#Readable and Match ID Image#Submitted Signature,Vodacom Manage,2017-11-09 14:21:03,2017-11-09 14:21:03,55,NULL,NULL,  :: 2017-11-09 14:21:03 - 1
2017-10-13,756231470,Joyce Ndengerio,F,T100482003464,Voters ID,Tanzania,30-12-1991,712457800,744176191,G2 Test,EISA - VTL ,DAR,KINONDONI,TECNOTECNO-C8,NewReg,Pending,Pending,Pending,DECLINED,Fail,decline from ICAP.,Pending,,4,2.2.17,Good,Vodacom Manage,2017-11-09 14:21:03,#Correct Name#Correct DOB#Correct Gender#Correct Nationality #Correct ID Type#Correct ID Number#Visible and Match Portrait Image#Readable and Match ID Image#Readable and Match ID Image#Submitted Signature,#Correct Name#Correct DOB#Correct Gender#Correct Nationality #Correct ID Type#Correct ID Number#Visible and Match Portrait Image#Readable and Match ID Image#Readable and Match ID Image#Submitted Signature, , ,15,-1,Vodacom Manager,2017-11-09,lock
2017-10-13,762107499, Joyce  Ndengerio,F,T100482003464,Voters ID,Tanzania,30-12-1991,712457800,744176191,G2 Test,EISA - VTL ,DAR,KINONDONI,TECNOTECNO-C8,NewReg,Pending,Pending,Pending,PENDING,Pending,Reset By EditRecord2,Pending,,4,2.2.17,Not Verified,Joyce Joyce,2017-11-09 12:05:04,,#Correct Name#Correct DOB#Correct Gender#Correct Nationality #Wrong ID Type#Correct ID Number#Visible and Match Portrait Image#Readable and Match ID Image#Readable and Match ID Image#Submitted Signature,Vodacom Manage,2017-11-09 14:17:54,2017-11-09 14:17:54,55,NULL,NULL,  :: 2017-11-09 14:17:54 - 1
2017-11-02,754649725,SAMWEL BABALA,M,T100482003464,Voters ID,Tanzania,20-10-1985,754568745,755673422,Sam Samson,EISA - VTL ,DAR,KINONDONI,samsungSM-G900F,NewReg,Pending,Pending,Pending,DECLINED,Fail,decline from ICAP.,Pending,,4,2.2.13,Not Verified,Vodacom Manage,2017-11-09 13:16:18,,#Correct Name#Correct DOB#Correct Gender#Correct Nationality #Correct ID Type#Correct ID Number#Visible and Match Portrait Image#Readable and Match ID Image#Readable and Match ID Image#Submitted Signature, , ,2017-11-09 13:16:18,55,NULL,NULL,  :: 2017-11-09 13:16:18 - 1
2017-11-09,756124578,Lordguard Mahinja,M,T100482003464,National ID,Tanzania,28-09-1993,712457800,752321805,Gloria  Kabaka ,EISA - VTL ,DAR,KINONDONI,TECNOTECNO-C8,Re-Reg,Pending,Pending,Pending,Pending,Fail,["Number not authorized for registration."],Fail,Verification Declined,4,2.2.17,Not Verified,Joyce Joyce,2017-11-09 16:17:37,,, , ,2017-11-09 16:17:37,55,Vodacom Manager,2017-11-09,  :: 2017-11-09 16:17:37 - 345
2017-11-09,755780056,Lordguard Mahinja,M,T100482003464,National ID,Tanzania,28-09-1993,716587400,752321805,Gloria  Kabaka ,EISA - VTL ,DAR,KINONDONI,TECNOTECNO-C8,NewReg,Pending,Pending,Pending,Pending,Pending, ,Fail,Verification Declined,4,2.2.17,Not Verified,Joyce Joyce,2017-11-09 16:17:33,,, , ,2017-11-09 16:17:33,55,Vodacom Manager,2017-11-09,  :: 2017-11-09 16:17:33 - 345
2017-11-09,756580963,Lordguard Mahinja,M,T100482003464,National ID,Tanzania,28-09-1993,712457866,752321805,Gloria  Kabaka ,EISA - VTL ,DAR,KINONDONI,TECNOTECNO-C8,Re-Reg,Pending,Pending,Pending,Pending,Fail,["ID number has been used too many registrations of the same ID number" "Number not authorized for registration."],Fail,Verification Declined,4,2.2.17,Bad,Joyce Joyce,2017-11-09 16:17:32,#Correct Name#Correct DOB#Correct Gender#Correct Nationality #Correct ID Type#Correct ID Number#Visible and Match Portrait Image#Readable and Match ID Image#Readable and Match ID Image#Submitted Signature,#Correct Name#Correct DOB#Correct Gender#Correct Nationality #Correct ID Type#Correct ID Number#Visible and Match Portrait Image#Readable and Match ID Image#Readable and Match ID Image#Submitted Signature, , ,12,55,NULL,NULL,AmonitoringValidation
2017-11-09,754123651,Lordguard Mahinja,M,T100482003464,National ID,Tanzania,28-09-1993,756457800,752321805,Gloria  Kabaka ,EISA - VTL ,DAR,KINONDONI,TECNOTECNO-C8,Re-Reg,Pending,Pending,Pending,Pending,Fail,["ID number has been used too many registrations of the same ID number" "Number not authorized for registration."],Fail,Verification Declined,4,2.2.17,Bad,Joyce Joyce,2017-11-09 16:17:18,#Correct Name#Correct DOB#Cannot be verified#Cannot be verified#Cannot be verified#Correct ID Number#Visible and Match Portrait Image#Readable and Match ID Image#Readable and Match ID Image#Submitted Signature,#Correct Name#Correct DOB#Cannot be verified#Cannot be verified#Cannot be verified#Correct ID Number#Visible and Match Portrait Image#Readable and Match ID Image#Readable and Match ID Image#Submitted Signature, , ,21,55,NULL,NULL,AmonitoringValidation
2017-11-09,754980522,Gladness Nahutwa,F,T100482003464,Voters ID,Tanzania,13-06-1986,712457800,752321805,Gloria  Kabaka ,EISA - VTL ,DAR,KINONDONI,TECNOTECNO-C8,Re-Reg,Pending,Pending,Pending,Pending,Fail,["ID number has been used too many registrations of the same ID number"],Fail,Verification Declined,4,2.2.17,Bad,Joyce Joyce,2017-11-09 16:16:57,#Correct Name#Correct DOB#Wrong Gender#Correct Nationality #Correct ID Type#Correct ID Number#Visible and Match Portrait Image#Readable and Match ID Image#Readable and Match ID Image#Submitted Signature,#Correct Name#Correct DOB#Wrong Gender#Correct Nationality #Correct ID Type#Correct ID Number#Visible and Match Portrait Image#Readable and Match ID Image#Readable and Match ID Image#Submitted Signature, , ,14,55,NULL,NULL,AmonitoringValidation
2017-11-09,756809524,ugladness Nahutwa,F,T100482003464,Voters ID,Tanzania,09-11-1995,777562344,752321805,Gloria  Kabaka ,EISA - VTL ,DAR,KINONDONI,TECNOTECNO-C8,Re-Reg,Pending,Pending,Pending,Pending,Fail,["ID number has been used too many registrations of the same ID number"],Fail,Verification Declined,4,2.2.17,Bad,Joyce Joyce,2017-11-09 16:16:42,#Misspelled Name#Correct DOB#Correct Gender#Correct Nationality #Correct ID Type#Correct ID Number#Visible and Match Portrait Image#Readable and Match ID Image#Readable and Match ID Image#Submitted Signature,#Misspelled Name#Correct DOB#Correct Gender#Correct Nationality #Correct ID Type#Correct ID Number#Visible and Match Portrait Image#Readable and Match ID Image#Readable and Match ID Image#Submitted Signature, , ,15,55,NULL,NULL,AmonitoringValidation
2017-11-09,754832695,ugladness nahutwa,F,T100482003464,Voters ID,Tanzania,09-11-1988,712454800,752321805,Gloria  Kabaka ,EISA - VTL ,DAR,KINONDONI,TECNOTECNO-C8,Re-Reg,Pending,Pending,Pending,Pending,Fail,["ID number has been used too many registrations of the same ID number" "Number not authorized for registration."],Fail,Verification Declined,4,2.2.17,Bad,Joyce Joyce,2017-11-09 16:16:26,#Correct Name#Correct DOB#Correct Gender#Correct Nationality #Correct ID Type#Correct ID Number#Visible and Match Portrait Image#Readable and Match ID Image#Readable and Match ID Image#Submitted Signature,#Correct Name#Correct DOB#Correct Gender#Correct Nationality #Correct ID Type#Correct ID Number#Visible and Match Portrait Image#Readable and Match ID Image#Readable and Match ID Image#Submitted Signature, , ,9,55,NULL,NULL,AmonitoringValidation
2017-10-26,754635212,GEORGIA RWECHUNGURA,F,T100482003464,Voters ID,Tanzania,22-07-1989,655745354,766613568,Haidari  Bravo,Vodacom Manage,SOUTH WEST,NJOMBE,motorolaXT1058,NewReg,Pending,Pending,Pending,PENDING,Pending,Reset By EditRecord2,Pending,,4,2.2.17,Not Verified,Joyce Joyce,2017-11-09 12:04:49,,#Correct Name#Correct DOB#Wrong Gender#Correct Nationality #Correct ID Type#Correct ID Number#Visible and Match Portrait Image#Readable and Match ID Image#Readable and Match ID Image#Submitted Signature,Vodacom Manage,2017-11-09 14:10:47,2017-11-09 14:10:47,55,NULL,NULL,  :: 2017-11-09 14:10:47 - 1
