CREATEDDATE,MSISDN,CUSTOMERNAME,GENDER,IDNUMBER,IDTYPE,COUNTRY,DOB,ALTERNATIVEMSISDN,AGENTMOBILE,AGENTNAME,SUPERAGENTNAME,REGIONNAME,TERRITORYNAME,DEVICEMODEL,REGTYPE,MPESASTATE,ICAP_STATE,DBMS_STATE,EKYCSTATUS,TEMPREGSTATUS,TEMPREGDESCRIPTION,FULLREGSTATUS,FULLREGDESCR,IMAGECOUNT,AppVersion,Verified State,Verified By,Verified Date,Verified Descr,Original Verified Descr,Edited By,Edited date,TimeToVerify,Audit State,Audited By,Audited Date,Audit Descr
2017-11-09,756124578,Lordguard Mahinja,M,T100482003464,National ID,Tanzania,28-09-1993,712457800,752321805,Gloria  Kabaka ,EISA - VTL ,DAR,KINONDONI,TECNOTECNO-C8,Re-Reg,Pending,Pending,Pending,Pending,Fail,["Number not authorized for registration."],Fail,Verification Declined,4,2.2.17,Not Verified,Joyce Joyce,2017-11-09 16:17:37,,, , ,2017-11-09 16:17:37,55,Vodacom Manager,2017-11-09,  :: 2017-11-09 16:17:37 - 345
2017-11-09,755780056,Lordguard Mahinja,M,T100482003464,National ID,Tanzania,28-09-1993,716587400,752321805,Gloria  Kabaka ,EISA - VTL ,DAR,KINONDONI,TECNOTECNO-C8,NewReg,Pending,Pending,Pending,Pending,Pending, ,Fail,Verification Declined,4,2.2.17,Not Verified,Joyce Joyce,2017-11-09 16:17:33,,, , ,2017-11-09 16:17:33,55,Vodacom Manager,2017-11-09,  :: 2017-11-09 16:17:33 - 345
2017-11-09,756580963,Lordguard Mahinja,M,T100482003464,National ID,Tanzania,28-09-1993,712457866,752321805,Gloria  Kabaka ,EISA - VTL ,DAR,KINONDONI,TECNOTECNO-C8,Re-Reg,Pending,Pending,Pending,Pending,Fail,["ID number has been used too many registrations of the same ID number" "Number not authorized for registration."],Fail,Verification Declined,4,2.2.17,Bad,Joyce Joyce,2017-11-09 16:17:32,#Correct Name#Correct DOB#Correct Gender#Correct Nationality #Correct ID Type#Correct ID Number#Visible and Match Portrait Image#Readable and Match ID Image#Readable and Match ID Image#Submitted Signature,#Correct Name#Correct DOB#Correct Gender#Correct Nationality #Correct ID Type#Correct ID Number#Visible and Match Portrait Image#Readable and Match ID Image#Readable and Match ID Image#Submitted Signature, , ,12,55,NULL,NULL,AmonitoringValidation
2017-11-09,754123651,Lordguard Mahinja,M,T100482003464,National ID,Tanzania,28-09-1993,756457800,752321805,Gloria  Kabaka ,EISA - VTL ,DAR,KINONDONI,TECNOTECNO-C8,Re-Reg,Pending,Pending,Pending,Pending,Fail,["ID number has been used too many registrations of the same ID number" "Number not authorized for registration."],Fail,Verification Declined,4,2.2.17,Bad,Joyce Joyce,2017-11-09 16:17:18,#Correct Name#Correct DOB#Cannot be verified#Cannot be verified#Cannot be verified#Correct ID Number#Visible and Match Portrait Image#Readable and Match ID Image#Readable and Match ID Image#Submitted Signature,#Correct Name#Correct DOB#Cannot be verified#Cannot be verified#Cannot be verified#Correct ID Number#Visible and Match Portrait Image#Readable and Match ID Image#Readable and Match ID Image#Submitted Signature, , ,21,55,NULL,NULL,AmonitoringValidation
2017-11-09,754980522,Gladness Nahutwa,F,T100482003464,Voters ID,Tanzania,13-06-1986,712457800,752321805,Gloria  Kabaka ,EISA - VTL ,DAR,KINONDONI,TECNOTECNO-C8,Re-Reg,Pending,Pending,Pending,Pending,Fail,["ID number has been used too many registrations of the same ID number"],Fail,Verification Declined,4,2.2.17,Bad,Joyce Joyce,2017-11-09 16:16:57,#Correct Name#Correct DOB#Correct Gender#Correct Nationality #Correct ID Type#Correct ID Number#Visible and Match Portrait Image#Readable and Match ID Image#Readable and Match ID Image#Submitted Signature,#Correct Name#Correct DOB#Wrong Gender#Correct Nationality #Correct ID Type#Correct ID Number#Visible and Match Portrait Image#Readable and Match ID Image#Readable and Match ID Image#Submitted Signature,Vodacom Manage,2017-11-09 16:28:38,33,55,NULL,NULL,AmonitoringValidation
2017-11-09,756809524,ugladness Nahutwa,F,T100482003464,Voters ID,Tanzania,09-11-1995,777562344,752321805,Gloria  Kabaka ,EISA - VTL ,DAR,KINONDONI,TECNOTECNO-C8,Re-Reg,Pending,Pending,Pending,Pending,Fail,["ID number has been used too many registrations of the same ID number"],Fail,Verification Declined,4,2.2.17,Bad,Joyce Joyce,2017-11-09 16:16:42,#Correct Name#Correct DOB#Correct Gender#Correct Nationality #Correct ID Type#Correct ID Number#Visible and Match Portrait Image#Readable and Match ID Image#Readable and Match ID Image#Submitted Signature,#Misspelled Name#Correct DOB#Correct Gender#Correct Nationality #Correct ID Type#Correct ID Number#Visible and Match Portrait Image#Readable and Match ID Image#Readable and Match ID Image#Submitted Signature,Vodacom Manage,2017-11-09 16:28:04,22,55,NULL,NULL,AmonitoringValidation
2017-11-09,754832695,ugladness nahutwa,F,T100482003464,Voters ID,Tanzania,09-11-1988,712454800,752321805,Gloria  Kabaka ,EISA - VTL ,DAR,KINONDONI,TECNOTECNO-C8,Re-Reg,Pending,Pending,Pending,Pending,Fail,["ID number has been used too many registrations of the same ID number" "Number not authorized for registration."],Fail,Verification Declined,4,2.2.17,Bad,Joyce Joyce,2017-11-09 16:16:26,#Correct Name#Correct DOB#Correct Gender#Correct Nationality #Correct ID Type#Correct ID Number#Visible and Match Portrait Image#Readable and Match ID Image#Readable and Match ID Image#Submitted Signature,#Correct Name#Correct DOB#Correct Gender#Correct Nationality #Correct ID Type#Correct ID Number#Visible and Match Portrait Image#Readable and Match ID Image#Readable and Match ID Image#Submitted Signature, , ,9,55,NULL,NULL,AmonitoringValidation
2017-11-09,752888555,xixixixi kokokoko,F,T100482003464,Passport,Kenya,04-11-1999,754221122,754000438,Winnie QA,EISA - VTL ,SOUTH WEST,SONGEA,TECNOTECNO-C8,Re-Reg,Pending,Pending,Pending,Pending,Fail,["ID number has been used too many registrations of the same ID number" "Number not authorized for registration."],Fail,Verification Declined,4,2.2.17,Bad,Vodacom Manage,2017-11-09 16:32:00,#Correct Name#Correct DOB#Correct Gender#Correct Nationality #Correct ID Type#Correct ID Number#Visible and Match Portrait Image#Readable and Match ID Image#Readable and Match ID Image#Submitted Signature,#Misspelled Name#Correct DOB#Correct Gender#Correct Nationality #Correct ID Type#Correct ID Number#Visible and Match Portrait Image#Readable and Match ID Image#Readable and Match ID Image#Submitted Signature, , ,7,55,NULL,NULL,AmonitoringValidation
