CREATEDDATE,MSISDN,CUSTOMERNAME,GENDER,IDNUMBER,IDTYPE,COUNTRY,DOB,ALTERNATIVEMSISDN,AGENTMOBILE,AGENTNAME,SUPERAGENTNAME,REGIONNAME,TERRITORYNAME,DEVICEMODEL,REGTYPE,MPESASTATE,ICAP_STATE,DBMS_STATE,EKYCSTATUS,TEMPREGSTATUS,TEMPREGDESCRIPTION,FULLREGSTATUS,FULLREGDESCR,IMAGECOUNT,AppVersion,Verified State,Verified By,Verified Date,Verified Descr,Original Verified Descr,Edited By,Edited date,TimeToVerify,Audit State,Audited By,Audited Date,Audit Descr
2017-11-13,767506101,Jailani Khalidi,M,T100371045494,Voters ID,Tanzania,30-11-1986,744505274,745550007,Kishai Agent,sabas mtakama,DAR,KINONDONI,TECNOTECNO WX3LTE,NewReg,Pending,Pending,Pending,PENDING,Pending, ,Pending,,4,2.2.17,Not Verified,Joyce Joyce,2017-11-13 09:41:14,,NULL, , ,2017-11-13 09:41:14,NotAudited,NULL,NULL,NULL
2017-11-13,744870719,Joyce Ndengerio,F,4002250911,Drivers Licence,Tanzania,30-12-1991,745632541,754000438,Winnie QA,EISA - VTL ,DAR,KINONDONI,TECNOTECNO-C8,NewReg,Pending,Pending,Pending,Pending,Pending, ,Fail,Verification Declined,4,2.2.17,Bad,Joyce Joyce,2017-11-13 09:41:14,#Name Mismatch#Wrong DOB#Wrong Gender#Wrong Nationality#Wrong ID Type#Wrong ID Number#Blur Portrait Image#Unreadable ID Image#Invalid ID Image#Empty Signature,#Name Mismatch#Wrong DOB#Wrong Gender#Wrong Nationality#Wrong ID Type#Wrong ID Number#Blur Portrait Image#Unreadable ID Image#Invalid ID Image#Empty Signature, , ,68,Locked,Vodacom Manager,2017-11-14,lock
2017-11-13,744965842,Joyce Ndengerio,F,T100396034063,Voters ID,Tanzania,30-12-1991,712457800,754000438,Winnie QA,EISA - VTL ,DAR,KINONDONI,TECNOTECNO-C8,NewReg,Pending,Pending,Pending,PENDING,Pending, ,Pending,,4,2.2.17,Good,Vodacom  Manager,2017-11-13 10:01:25,#Correct Name#Correct DOB#Correct Gender#Correct Nationality #Correct ID Type#Correct ID Number#Visible and Match Portrait Image#Readable and Match ID Image#Readable and Match ID Image#Submitted Signature,#Correct Name#Correct DOB#Correct Gender#Correct Nationality #Correct ID Type#Correct ID Number#Visible and Match Portrait Image#Readable and Match ID Image#Readable and Match ID Image#Submitted Signature, , ,103,Locked,Vodacom Manager,2017-11-14,lock
2017-11-13,744699482,Jailani Mwanga,M,T100371045494,Voters ID,Tanzania,09-11-1999,752642978,745550007,Kishai Agent,sabas mtakama,DAR,KINONDONI,TECNOTECNO WX3LTE,NewReg,Pending,Pending,Pending,PENDING,Pending, ,Pending,,4,2.2.17,Good,Vodacom  Manager,2017-11-13 11:26:16,#Correct Name#Correct DOB#Correct Gender#Correct Nationality #Correct ID Type#Correct ID Number#Visible and Match Portrait Image#Readable and Match ID Image#Readable and Match ID Image#Submitted Signature,#Correct Name#Wrong DOB#Correct Gender#Correct Nationality #Correct ID Type#Correct ID Number#Visible and Match Portrait Image#Readable and Match ID Image#Readable and Match ID Image#Submitted Signature,Vodacom  Manager,2017-11-13 11:28:37,86,Locked,Vodacom Manager,2017-11-14,lock
2017-11-13,744617237,Jailani Kapanga,M,T100371045494,Voters ID,Tanzania,30-11-1986,745852548,745550007,Kishai Agent,sabas mtakama,DAR,KINONDONI,TECNOTECNO WX3LTE,NewReg,Pending,Pending,Pending,PENDING,Pending, ,Pending,,4,2.2.17,Not Verified,Vodacom  Manager,2017-11-13 14:33:03,,NULL, , ,2017-11-13 14:33:03,NotAudited,NULL,NULL,NULL
2017-11-13,744953642,Jailani Mwanga,F,T100371045494,Voters ID,Tanzania,30-11-1986,754858585,745550007,Kishai Agent,sabas mtakama,DAR,KINONDONI,TECNOTECNO WX3LTE,NewReg,Pending,Pending,Pending,PENDING,Pending,Reset By EditRecord2,Pending,,4,2.2.17,Good,voda staff,2017-11-13 15:26:14,#Correct Name#Correct DOB#Correct Gender#Correct Nationality #Correct ID Type#Correct ID Number#Visible and Match Portrait Image#Readable and Match ID Image#Readable and Match ID Image#Submitted Signature,#Correct Name#Correct DOB#Wrong Gender#Correct Nationality #Correct ID Type#Correct ID Number#Visible and Match Portrait Image#Readable and Match ID Image#Readable and Match ID Image#Submitted Signature, , ,94,Locked,Vodacom Manager,2017-11-14,lock
2017-11-13,745237107,JAILANI MWANGA,F,T100371045494,Voters ID,Tanzania,30-11-1986,752652455,745550007,Kishai Agent,sabas mtakama,DAR,KINONDONI,TECNOTECNO WX3LTE,NewReg,Pending,Pending,Pending,PENDING,Pending, ,Pending,,4,2.2.17,Not Verified,voda staff,2017-11-13 15:55:52,#Misspelled Name#Wrong DOB#Wrong Gender#Correct Nationality #Wrong ID Type#Correct ID Number#Visible and Match Portrait Image#Readable and Match ID Image#Readable and Match ID Image#Submitted Signature,#Misspelled Name#Wrong DOB#Wrong Gender#Correct Nationality #Wrong ID Type#Correct ID Number#Visible and Match Portrait Image#Readable and Match ID Image#Readable and Match ID Image#Submitted Signature, , ,2017-11-13 15:55:52,NotAudited,NULL,NULL,NULL
2017-11-13,745209203,JAILANI MWANGA,M,T100371045493,Voters ID,Tanzania,30-11-1986,758254588,745550007,Kishai Agent,sabas mtakama,DAR,KINONDONI,TECNOTECNO WX3LTE,NewReg,Pending,Pending,Pending,PENDING,Pending, ,Pending,,4,2.2.17,Not Verified,voda staff,2017-11-13 16:54:41,#Correct Name#Correct DOB#Wrong Gender#Correct Nationality #Wrong ID Type#Correct ID Number#Visible and Match Portrait Image#Readable and Match ID Image#Readable and Match ID Image#Submitted Signature,#Correct Name#Correct DOB#Wrong Gender#Correct Nationality #Wrong ID Type#Correct ID Number#Visible and Match Portrait Image#Readable and Match ID Image#Readable and Match ID Image#Submitted Signature, , ,2017-11-13 16:54:41,NotAudited,NULL,NULL,NULL
2017-11-13,745074479,JAILANI MWANGA,M,T100371045494,Voters ID,Tanzania,30-11-1986,758254828,745550007,Kishai Agent,sabas mtakama,DAR,KINONDONI,TECNOTECNO WX3LTE,NewReg,Pending,Pending,Pending,PENDING,Pending, ,Pending,,4,2.2.17,Good,voda staff,2017-11-13 17:28:27,#Correct Name#Correct DOB#Correct Gender#Correct Nationality #Correct ID Type#Correct ID Number#Visible and Match Portrait Image#Readable and Match ID Image#Readable and Match ID Image#Submitted Signature,#Misspelled Name#Correct DOB#Correct Gender#Correct Nationality #Correct ID Type#Wrong ID Number#Visible and Match Portrait Image#Readable and Match ID Image#Readable and Match ID Image#Submitted Signature, , ,78,Locked,Vodacom Manager,2017-11-14,lock
