CREATEDDATE,MSISDN,CUSTOMERNAME,GENDER,IDNUMBER,IDTYPE,COUNTRY,DOB,ALTERNATIVEMSISDN,AGENTMOBILE,AGENTNAME,SUPERAGENTNAME,REGIONNAME,TERRITORYNAME,DEVICEMODEL,REGTYPE,MPESASTATE,ICAP_STATE,DBMS_STATE,EKYCSTATUS,TEMPREGSTATUS,TEMPREGDESCRIPTION,FULLREGSTATUS,FULLREGDESCR,IMAGECOUNT,AppVersion,Verified State,Verified By,Verified Date,Verified Descr,Original Verified Descr,Edited By,Edited date,TimeToVerify,Audit State,Audited By,Audited Date,Audit Descr,SALESCODE
2017-11-02,754649725,SAMWEL BABALA,M,T2619258925504412555625445,Voters ID,Tanzania,20-10-1985,754568745,755673422,Sam Samson,EISA - VTL ,DAR,KINONDONI,samsungSM-G900F,NewReg,Pending,Pending,Pending,PENDING,Pending,,Pending,,4,2.2.13,Good,Vodacom Manage,2017-11-10 11:13:48,#Correct Name#Correct DOB#Correct Gender#Correct Nationality #Correct ID Type#Correct ID Number#Visible and Match Portrait Image#Readable and Match ID Image#Readable and Match ID Image#Submitted Signature,, , ,35,Locked,Vodacom Manager,2017-11-14,lock,NULL
2017-11-10,756124578,Lordguard Mahinja,M,T261926892550441074423427_20171109115153_20171109131618,National ID,Tanzania,28-09-1993,712457800,752321805,Gloria  Kabaka ,EISA - VTL ,DAR,KINONDONI,TECNOTECNO-C8,Re-Reg,Pending,Pending,Pending,PENDING,Pending,,Pending,,4,2.2.17,Good,Vodacom Manage,2017-11-10 11:30:00,#Correct Name#Correct DOB#Correct Gender#Correct Nationality #Correct ID Type#Correct ID Number#Visible and Match Portrait Image#Readable and Match ID Image#Readable and Match ID Image#Submitted Signature,#Correct Name#Correct DOB#Correct Gender#Correct Nationality #Correct ID Type#Correct ID Number#Visible and Match Portrait Image#Readable and Match ID Image#Readable and Match ID Image#Submitted Signature, , ,26,Locked,Vodacom Manager,2017-11-14,lock,NULL
2017-11-10,755780056,Lordguard Mahinja,M,T261927892550441074423427_20171109131544,National ID,Tanzania,28-09-1993,716587400,752321805,Gloria  Kabaka ,EISA - VTL ,DAR,KINONDONI,TECNOTECNO-C8,NewReg,Pending,Pending,Pending,PENDING,Pending,,Pending,,4,2.2.17,Not Verified,Joyce Joyce,2017-11-10 11:29:13,,#Correct Name#Correct DOB#Correct Gender#Correct Nationality #Correct ID Type#Correct ID Number#Visible and Match Portrait Image#Readable and Match ID Image#Readable and Match ID Image#Submitted Signature, , ,2017-11-10 11:29:13,NotAudited,NULL,NULL,,NULL
2017-11-10,756580963,Lordguard Mahinja,M,T261928892550441074423435_20171109120825_20171109161451_20171109161451_20171109161732_20171109161732_20171110100703_20171110100703,National ID,Tanzania,28-09-1993,712457866,752321805,Gloria  Kabaka ,EISA - VTL ,DAR,KINONDONI,TECNOTECNO-C8,Re-Reg,Pending,Pending,Pending,PENDING,Pending,,Pending,,4,2.2.17,Not Verified,Joyce Joyce,2017-11-10 09:56:24,,#Correct Name#Correct DOB#Correct Gender#Wrong Nationality#Correct ID Type#Correct ID Number#Visible and Match Portrait Image#Readable and Match ID Image#Readable and Match ID Image#Submitted Signature,Vodacom Manage,2017-11-10 11:29:08,2017-11-10 11:29:08,NotAudited,NULL,NULL,,NULL
2017-11-10,754123651,Lordguard Mahinja,M,T261929892550441074423427_20171109122856_20171109161438_20171109161438_20171109161718_20171109161718,National ID,Tanzania,28-09-1993,756457800,752321805,Gloria  Kabaka ,EISA - VTL ,DAR,KINONDONI,TECNOTECNO-C8,Re-Reg,Pending,Pending,Pending,PENDING,Pending,,Pending,,4,2.2.17,Good,Vodacom Manage,2017-11-10 11:29:07,#Correct Name#Correct DOB#Correct Gender#Correct Nationality #Correct ID Type#Correct ID Number#Visible and Match Portrait Image#Readable and Match ID Image#Readable and Match ID Image#Submitted Signature,#Correct Name#Correct DOB#Correct Gender#Correct Nationality #Correct ID Type#Correct ID Number#Visible and Match Portrait Image#Readable and Match ID Image#Readable and Match ID Image#Submitted Signature, , ,32,Locked,Vodacom Manager,2017-11-14,lock,NULL
2017-11-10,754980522,Gladness Nahutwa,F,T261930892550441074423435_20171109141046_20171109161413_20171109161413_20171109161657_20171109161657_20171109162838_20171109162838_20171110100634_20171110100634,Voters ID,Tanzania,13-06-1986,712457800,752321805,Gloria  Kabaka ,EISA - VTL ,DAR,KINONDONI,TECNOTECNO-C8,Re-Reg,Pending,Pending,Pending,PENDING,Pending,,Pending,,4,2.2.17,Not Verified,Joyce Joyce,2017-11-10 09:55:45,,#Correct Name#Correct DOB#Correct Gender#Correct Nationality #Wrong ID Type#Correct ID Number#Visible and Match Portrait Image#Readable and Match ID Image#Readable and Match ID Image#Submitted Signature,Vodacom Manage,2017-11-10 11:27:53,2017-11-10 11:27:53,NotAudited,NULL,NULL,,NULL
2017-11-10,756809524,ugladness Nahutwa,F,T261931892550441074423427_20171109141754_20171109161143_20171109161143_20171109161355_20171109161355_20171109161641_20171109161642_20171109162804_20171109162804,Voters ID,Tanzania,09-11-1995,777562344,752321805,Gloria  Kabaka ,EISA - VTL ,DAR,KINONDONI,TECNOTECNO-C8,Re-Reg,Pending,Pending,Pending,PENDING,Pending,,Pending,,4,2.2.17,Not Verified,Joyce Joyce,2017-11-10 09:55:21,,#Misspelled Name#Correct DOB#Correct Gender#Correct Nationality #Correct ID Type#Correct ID Number#Visible and Match Portrait Image#Readable and Match ID Image#Readable and Match ID Image#Submitted Signature,Vodacom Manage,2017-11-10 11:27:47,2017-11-10 11:27:47,NotAudited,NULL,NULL,,NULL
2017-11-10,754832695,ugladness nahutwa,F,T261932892550441074423435_20171109142041_20171109161125_20171109161126_20171109161334_20171109161334_20171109161536_20171109161536_20171109161626_20171109161626,Voters ID,Tanzania,09-11-1988,712454800,752321805,Gloria  Kabaka ,EISA - VTL ,DAR,KINONDONI,TECNOTECNO-C8,Re-Reg,Pending,Pending,Pending,PENDING,Pending,,Pending,,4,2.2.17,Not Verified,Joyce Joyce,2017-11-10 09:54:56,,#Correct Name#Correct DOB#Correct Gender#Correct Nationality #Correct ID Type#Correct ID Number#Visible and Match Portrait Image#Readable and Match ID Image#Readable and Match ID Image#Submitted Signature,Vodacom Manage,2017-11-10 11:25:00,2017-11-10 11:25:00,NotAudited,NULL,NULL,,NULL
2017-11-10,743311142,juma yusuph,M,T261934892550441074421710,Voters ID,Tanzania,06-02-1988,752672970,745550007,Kishai Agent,sabas mtakama,DAR,KINONDONI,TECNOTECNO WX3LTE,NewReg,Pending,Pending,Pending,PENDING,Pending,,Pending,,4,2.2.17,Not Verified,Vodacom Manage,2017-11-10 14:20:45,,, , ,2017-11-10 14:20:45,NotAudited,NULL,NULL,,NULL
2017-11-10,743327385,Jennifer Kishai,F,T2619358925504410744217110,Passport,Tanzania,19-08-1990,752672970,745550007,Kishai Agent,sabas mtakama,DAR,KINONDONI,TECNOTECNO WX3LTE,NewReg,Pending,Pending,Pending,PENDING,Pending,,Pending,,4,2.2.17,Not Verified,Vodacom Manage,2017-11-10 13:14:17,,NULL, , ,2017-11-10 13:14:17,NotAudited,NULL,NULL,,NULL
2017-11-10,754123695,Joyce Ndengerio,F,4002250911,Drivers Licence,Tanzania,10-11-1999,712456698,754000438,Winnie QA,EISA - VTL ,DAR,KINONDONI,TECNOTECNO-C8,Re-Reg,Pending,Pending,Pending,Pending,Pending,,Fail,Verification Declined,4,2.2.17,Bad,Vodacom Manage,2017-11-10 11:24:43,#Invalid Name#Wrong DOB#Wrong Gender#Wrong Nationality#Wrong ID Type#Wrong ID Number#Visible and Match Portrait Image#Readable and Match ID Image#Readable and Match ID Image#Submitted Signature,#Invalid Name#Wrong DOB#Wrong Gender#Wrong Nationality#Wrong ID Type#Wrong ID Number#Visible and Match Portrait Image#Readable and Match ID Image#Readable and Match ID Image#Submitted Signature, , ,67,Locked,Vodacom Manager,2017-11-14,lock,NULL
2017-11-10,742936762,Jennifer Kishai,F,AB649939,Passport,Tanzania,19-08-1990,752672978,745550007,Kishai Agent,sabas mtakama,DAR,KINONDONI,TECNOTECNO WX3LTE,NewReg,Pending,Pending,Pending,PENDING,Pending, ,Pending,,4,2.2.17,Not Verified,Vodacom Manage,2017-11-10 13:01:36,,NULL, , ,2017-11-10 13:01:36,NotAudited,NULL,NULL,NULL,NULL
2017-11-10,756124599,Joyce Ndengerio,F,4002250911,Drivers Licence,Tanzania,10-11-1999,746523699,754000438,Winnie QA,EISA - VTL ,DAR,KINONDONI,TECNOTECNO-C8,Re-Reg,Pending,Pending,Pending,DECLINED,Fail,["Number not authorized for registration."],Pending,,4,2.2.17,Bad,Oscar Makala,2017-11-10 11:27:34,InternalVerification: ["Number not authorized for registration."],NULL, , ,NULL,Locked,Vodacom Manager,2017-11-14,lock,NULL
2017-11-10,752965211,Joyce Ndengerio,F,4002250911,Drivers Licence,Tanzania,10-11-1990,712457800,754000438,Winnie QA,EISA - VTL ,DAR,KINONDONI,TECNOTECNO-C8,Re-Reg,Pending,Pending,Pending,DECLINED,Fail,["Number not authorized for registration."],Pending,,4,2.2.17,Bad,Oscar Makala,2017-11-10 11:33:48,InternalVerification: ["Number not authorized for registration."],NULL, , ,NULL,Locked,Vodacom Manager,2017-11-14,lock,NULL
2017-11-10,743824491,Joyce Ndengerio,F,4002350911,Drivers Licence,Tanzania,30-12-1991,712457800,754000438,Winnie QA,EISA - VTL ,DAR,KINONDONI,TECNOTECNO-C8,NewReg,Pending,Pending,Pending,PENDING,Pending, ,Pending,,4,2.2.17,Good,Vodacom Manage,2017-11-10 11:50:47,#Correct Name#Correct DOB#Correct Gender#Correct Nationality #Correct ID Type#Correct ID Number#Visible and Match Portrait Image#Readable and Match ID Image#Readable and Match ID Image#Submitted Signature,#Correct Name#Correct DOB#Correct Gender#Correct Nationality #Correct ID Type#Correct ID Number#Visible and Match Portrait Image#Readable and Match ID Image#Readable and Match ID Image#Submitted Signature, , ,30,Locked,Vodacom Manager,2017-11-14,lock,NULL
2017-11-10,712457899,Joyce Ndengerio,F,4005678911,Drivers Licence,Tanzania,10-11-1999,712457882,754000438,Winnie QA,EISA - VTL ,DAR,KINONDONI,TECNOTECNO-C8,Re-Reg,Pending,Pending,Pending,DECLINED,Fail,["Number not authorized for registration."],Pending,,4,2.2.17,Bad,Oscar Makala,2017-11-10 11:55:12,InternalVerification: ["Number not authorized for registration."],NULL, , ,NULL,Locked,Vodacom Manager,2017-11-14,lock,NULL
2017-11-10,744020614,Joyce Ndengerio,F,4002350911,Drivers Licence,Tanzania,30-12-1991,712456698,754000438,Winnie QA,EISA - VTL ,DAR,KINONDONI,TECNOTECNO-C8,NewReg,Pending,Pending,Pending,Pending,Pending, ,Fail,Verification Declined,4,2.2.17,Bad,Vodacom Manage,2017-11-10 12:51:07,#Invalid Name#Wrong DOB#Wrong Gender#Wrong Nationality#Wrong ID Type#Wrong ID Number#Visible and Match Portrait Image#Readable and Match ID Image#Readable and Match ID Image#Submitted Signature,#Invalid Name#Wrong DOB#Wrong Gender#Wrong Nationality#Wrong ID Type#Wrong ID Number#Visible and Match Portrait Image#Readable and Match ID Image#Readable and Match ID Image#Submitted Signature, , ,93,Locked,Vodacom Manager,2017-11-14,lock,NULL
2017-11-10,752657411,Anna John,F,T100687541094,Voters ID,Tanzania,10-11-1999,716587411,754000438,Winnie QA,EISA - VTL ,DAR,KINONDONI,TECNOTECNO-C8,NewReg,Pending,Pending,Pending,Pending,Pending, ,Fail,Verification Declined,4,2.2.17,Bad,Vodacom Manage,2017-11-10 12:55:33,#Correct Name#Correct DOB#Wrong Gender#Correct Nationality #Wrong ID Type#Wrong ID Number#Visible and Match Portrait Image#Invalid ID Image#Unreadable ID Image#Submitted Signature,#Correct Name#Correct DOB#Wrong Gender#Correct Nationality #Wrong ID Type#Wrong ID Number#Visible and Match Portrait Image#Invalid ID Image#Unreadable ID Image#Submitted Signature, , ,54,Locked,Vodacom Manager,2017-11-14,lock,NULL
2017-11-10,754712355,Lulu Pearl,F,T100686642093,Voters ID,Tanzania,10-11-1994,712354178,754000438,Winnie QA,EISA - VTL ,DAR,KINONDONI,TECNOTECNO-C8,NewReg,Pending,Pending,Pending,PENDING,Pending, ,Pending,,4,2.2.17,Not Verified,Vodacom Manage,2017-11-10 13:01:36,#Name Mismatch#Correct DOB#Correct Gender#Correct Nationality #Correct ID Type#Correct ID Number#Visible and Match Portrait Image#Readable and Match ID Image#Readable and Match ID Image#Submitted Signature,#Name Mismatch#Correct DOB#Correct Gender#Correct Nationality #Correct ID Type#Correct ID Number#Visible and Match Portrait Image#Readable and Match ID Image#Readable and Match ID Image#Submitted Signature,voda staff,2017-11-10 16:05:10,2017-11-10 16:05:10,NotAudited,NULL,NULL,NULL,NULL
2017-11-10,754085542,Joyce Ndengerio,F,T100687741094,Voters ID,Tanzania,10-11-1999,712456632,754000438,Winnie QA,EISA - VTL ,DAR,KINONDONI,TECNOTECNO-C8,Re-Reg,Pending,Pending,Pending,DECLINED,Fail,["Number not authorized for registration."],Pending,,4,2.2.17,Bad,Oscar Makala,2017-11-10 14:20:38,InternalVerification: ["Number not authorized for registration."],NULL, , ,NULL,Locked,Vodacom Manager,2017-11-14,lock,NULL
2017-11-10,756712357,gladness nahutwa,F,T100687741094,Voters ID,Tanzania,10-11-1996,712457800,754000438,Winnie QA,EISA - VTL ,DAR,KINONDONI,TECNOTECNO-C8,NewReg,Pending,Pending,Pending,Pending,Pending, ,Fail,Verification Declined,4,2.2.17,Bad,Vodacom Manage,2017-11-10 14:42:55,#Invalid Name#Wrong DOB#Wrong Gender#Wrong Nationality#Wrong ID Type#Wrong ID Number#Blur Portrait Image#Unreadable ID Image#Unreadable ID Image#Empty Signature,#Invalid Name#Wrong DOB#Wrong Gender#Wrong Nationality#Wrong ID Type#Wrong ID Number#Blur Portrait Image#Unreadable ID Image#Unreadable ID Image#Empty Signature, , ,56,Locked,Vodacom Manager,2017-11-14,lock,NULL
2017-11-10,756288662,Joy Sam,F,4002270922,Drivers Licence,Tanzania,10-11-1994,715421366,754000438,Winnie QA,EISA - VTL ,DAR,KINONDONI,TECNOTECNO-C8,Re-Reg,Pending,Pending,Pending,DECLINED,Fail,["Number not authorized for registration."],Pending,,4,2.2.17,Bad,Oscar Makala,2017-11-10 14:54:39,InternalVerification: ["Number not authorized for registration."],NULL, , ,NULL,Locked,Vodacom Manager,2017-11-14,lock,NULL
2017-11-10,752874141,joy sam,F,4002260911,Drivers Licence,Tanzania,10-11-1992,713654788,754000438,Winnie QA,EISA - VTL ,DAR,KINONDONI,TECNOTECNO-C8,Re-Reg,Pending,Pending,Pending,DECLINED,Fail,["Number not authorized for registration."],Pending,,4,2.2.17,Bad,Oscar Makala,2017-11-10 14:56:24,InternalVerification: ["Number not authorized for registration."],NULL, , ,NULL,Locked,Vodacom Manager,2017-11-14,lock,NULL
2017-11-10,768762703,Joy Sam,F,4002350911,Drivers Licence,Tanzania,10-11-1994,712456698,754000438,Winnie QA,EISA - VTL ,DAR,KINONDONI,TECNOTECNO-C8,NewReg,Pending,Pending,Pending,Pending,Pending, ,Fail,Verification Declined,4,2.2.17,Bad,Vodacom Manage,2017-11-10 15:11:20,#Misspelled Name#Wrong DOB#Wrong Gender#Wrong Nationality#Wrong ID Type#Correct ID Number#Blur Portrait Image#Unreadable ID Image#Unreadable ID Image#Submitted Signature,#Misspelled Name#Wrong DOB#Wrong Gender#Wrong Nationality#Wrong ID Type#Correct ID Number#Blur Portrait Image#Unreadable ID Image#Unreadable ID Image#Submitted Signature, , ,50,Locked,Vodacom Manager,2017-11-14,lock,NULL
2017-11-10,745204568,Bakari Kishai,M,T100124019391,Voters ID,Tanzania,10-11-1999,758458545,745550007,Kishai Agent,sabas mtakama,DAR,KINONDONI,TECNOTECNO WX3LTE,NewReg,Pending,Pending,Pending,PENDING,Pending, ,Pending,,4,2.2.17,Good,Vodacom Manage,2017-11-10 17:31:17,#Correct Name#Correct DOB#Correct Gender#Correct Nationality #Correct ID Type#Correct ID Number#Visible and Match Portrait Image#Readable and Match ID Image#Readable and Match ID Image#Submitted Signature,#Correct Name#Correct DOB#Correct Gender#Correct Nationality #Correct ID Type#Correct ID Number#Visible and Match Portrait Image#Readable and Match ID Image#Readable and Match ID Image#Submitted Signature, , ,56,Locked,Vodacom Manager,2017-11-14,lock,NULL
2017-11-13,767506101,Jailani Khalidi,M,T100371045494,Voters ID,Tanzania,30-11-1986,744505274,745550007,Kishai Agent,sabas mtakama,DAR,KINONDONI,TECNOTECNO WX3LTE,NewReg,Pending,Pending,Pending,PENDING,Pending, ,Pending,,4,2.2.17,Not Verified,Joyce Joyce,2017-11-13 09:41:14,,NULL, , ,2017-11-13 09:41:14,NotAudited,NULL,NULL,NULL,NULL
2017-11-13,744870719,Joyce Ndengerio,F,4002250911,Drivers Licence,Tanzania,30-12-1991,745632541,754000438,Winnie QA,EISA - VTL ,DAR,KINONDONI,TECNOTECNO-C8,NewReg,Pending,Pending,Pending,Pending,Pending, ,Fail,Verification Declined,4,2.2.17,Bad,Joyce Joyce,2017-11-13 09:41:14,#Name Mismatch#Wrong DOB#Wrong Gender#Wrong Nationality#Wrong ID Type#Wrong ID Number#Blur Portrait Image#Unreadable ID Image#Invalid ID Image#Empty Signature,#Name Mismatch#Wrong DOB#Wrong Gender#Wrong Nationality#Wrong ID Type#Wrong ID Number#Blur Portrait Image#Unreadable ID Image#Invalid ID Image#Empty Signature, , ,68,Locked,Vodacom Manager,2017-11-14,lock,NULL
2017-11-13,744965842,Joyce Ndengerio,F,T100396034063,Voters ID,Tanzania,30-12-1991,712457800,754000438,Winnie QA,EISA - VTL ,DAR,KINONDONI,TECNOTECNO-C8,NewReg,Pending,Pending,Pending,PENDING,Pending, ,Pending,,4,2.2.17,Good,Vodacom  Manager,2017-11-13 10:01:25,#Correct Name#Correct DOB#Correct Gender#Correct Nationality #Correct ID Type#Correct ID Number#Visible and Match Portrait Image#Readable and Match ID Image#Readable and Match ID Image#Submitted Signature,#Correct Name#Correct DOB#Correct Gender#Correct Nationality #Correct ID Type#Correct ID Number#Visible and Match Portrait Image#Readable and Match ID Image#Readable and Match ID Image#Submitted Signature, , ,103,Locked,Vodacom Manager,2017-11-14,lock,NULL
2017-11-13,744699482,Jailani Mwanga,M,T100371045494,Voters ID,Tanzania,09-11-1999,752642978,745550007,Kishai Agent,sabas mtakama,DAR,KINONDONI,TECNOTECNO WX3LTE,NewReg,Pending,Pending,Pending,PENDING,Pending, ,Pending,,4,2.2.17,Good,Vodacom  Manager,2017-11-13 11:26:16,#Correct Name#Correct DOB#Correct Gender#Correct Nationality #Correct ID Type#Correct ID Number#Visible and Match Portrait Image#Readable and Match ID Image#Readable and Match ID Image#Submitted Signature,#Correct Name#Wrong DOB#Correct Gender#Correct Nationality #Correct ID Type#Correct ID Number#Visible and Match Portrait Image#Readable and Match ID Image#Readable and Match ID Image#Submitted Signature,Vodacom  Manager,2017-11-13 11:28:37,86,Locked,Vodacom Manager,2017-11-14,lock,NULL
2017-11-13,744617237,Jailani Kapanga,M,T100371045494,Voters ID,Tanzania,30-11-1986,745852548,745550007,Kishai Agent,sabas mtakama,DAR,KINONDONI,TECNOTECNO WX3LTE,NewReg,Pending,Pending,Pending,PENDING,Pending, ,Pending,,4,2.2.17,Not Verified,Vodacom  Manager,2017-11-13 14:33:03,,NULL, , ,2017-11-13 14:33:03,NotAudited,NULL,NULL,NULL,NULL
2017-11-13,744953642,Jailani Mwanga,F,T100371045494,Voters ID,Tanzania,30-11-1986,754858585,745550007,Kishai Agent,sabas mtakama,DAR,KINONDONI,TECNOTECNO WX3LTE,NewReg,Pending,Pending,Pending,PENDING,Pending,Reset By EditRecord2,Pending,,4,2.2.17,Good,voda staff,2017-11-13 15:26:14,#Correct Name#Correct DOB#Correct Gender#Correct Nationality #Correct ID Type#Correct ID Number#Visible and Match Portrait Image#Readable and Match ID Image#Readable and Match ID Image#Submitted Signature,#Correct Name#Correct DOB#Wrong Gender#Correct Nationality #Correct ID Type#Correct ID Number#Visible and Match Portrait Image#Readable and Match ID Image#Readable and Match ID Image#Submitted Signature, , ,94,Locked,Vodacom Manager,2017-11-14,lock,NULL
2017-11-13,745237107,JAILANI MWANGA,F,T100371045494,Voters ID,Tanzania,30-11-1986,752652455,745550007,Kishai Agent,sabas mtakama,DAR,KINONDONI,TECNOTECNO WX3LTE,NewReg,Pending,Pending,Pending,PENDING,Pending, ,Pending,,4,2.2.17,Not Verified,voda staff,2017-11-13 15:55:52,#Misspelled Name#Wrong DOB#Wrong Gender#Correct Nationality #Wrong ID Type#Correct ID Number#Visible and Match Portrait Image#Readable and Match ID Image#Readable and Match ID Image#Submitted Signature,#Misspelled Name#Wrong DOB#Wrong Gender#Correct Nationality #Wrong ID Type#Correct ID Number#Visible and Match Portrait Image#Readable and Match ID Image#Readable and Match ID Image#Submitted Signature, , ,2017-11-13 15:55:52,NotAudited,NULL,NULL,NULL,NULL
2017-11-13,745209203,JAILANI MWANGA,M,T100371045493,Voters ID,Tanzania,30-11-1986,758254588,745550007,Kishai Agent,sabas mtakama,DAR,KINONDONI,TECNOTECNO WX3LTE,NewReg,Pending,Pending,Pending,PENDING,Pending, ,Pending,,4,2.2.17,Not Verified,voda staff,2017-11-13 16:54:41,#Correct Name#Correct DOB#Wrong Gender#Correct Nationality #Wrong ID Type#Correct ID Number#Visible and Match Portrait Image#Readable and Match ID Image#Readable and Match ID Image#Submitted Signature,#Correct Name#Correct DOB#Wrong Gender#Correct Nationality #Wrong ID Type#Correct ID Number#Visible and Match Portrait Image#Readable and Match ID Image#Readable and Match ID Image#Submitted Signature, , ,2017-11-13 16:54:41,NotAudited,NULL,NULL,NULL,NULL
2017-11-13,745074479,JAILANI MWANGA,M,T100371045494,Voters ID,Tanzania,30-11-1986,758254828,745550007,Kishai Agent,sabas mtakama,DAR,KINONDONI,TECNOTECNO WX3LTE,NewReg,Pending,Pending,Pending,PENDING,Pending, ,Pending,,4,2.2.17,Good,voda staff,2017-11-13 17:28:27,#Correct Name#Correct DOB#Correct Gender#Correct Nationality #Correct ID Type#Correct ID Number#Visible and Match Portrait Image#Readable and Match ID Image#Readable and Match ID Image#Submitted Signature,#Misspelled Name#Correct DOB#Correct Gender#Correct Nationality #Correct ID Type#Wrong ID Number#Visible and Match Portrait Image#Readable and Match ID Image#Readable and Match ID Image#Submitted Signature, , ,78,Locked,Vodacom Manager,2017-11-14,lock,NULL
